EESchema Schematic File Version 4
LIBS:RobotIM-cache
EELAYER 26 0
EELAYER END
$Descr A4 11693 8268
encoding utf-8
Sheet 3 6
Title ""
Date ""
Rev ""
Comp ""
Comment1 ""
Comment2 ""
Comment3 ""
Comment4 ""
$EndDescr
$Comp
L power:+1V2 #PWR0134
U 1 1 5ECE6E69
P 2600 3350
F 0 "#PWR0134" H 2600 3200 50  0001 C CNN
F 1 "+1V2" H 2650 3550 50  0000 C CNN
F 2 "" H 2600 3350 50  0001 C CNN
F 3 "" H 2600 3350 50  0001 C CNN
	1    2600 3350
	1    0    0    -1  
$EndComp
$Comp
L Device:C_Small C?
U 1 1 5ECF307F
P 2600 3450
AR Path="/5E9C8987/5ECF307F" Ref="C?"  Part="1" 
AR Path="/5EA69A87/5ECF307F" Ref="C20"  Part="1" 
F 0 "C20" H 2692 3496 50  0000 L CNN
F 1 "0.1uF" H 2692 3405 50  0000 L CNN
F 2 "Capacitor_SMD:C_0603_1608Metric_Pad1.05x0.95mm_HandSolder" H 2600 3450 50  0001 C CNN
F 3 "~" H 2600 3450 50  0001 C CNN
	1    2600 3450
	1    0    0    -1  
$EndComp
$Comp
L Device:C_Small C?
U 1 1 5ECF3086
P 2750 2550
AR Path="/5E9C8987/5ECF3086" Ref="C?"  Part="1" 
AR Path="/5EA69A87/5ECF3086" Ref="C22"  Part="1" 
F 0 "C22" H 2600 2600 50  0000 L CNN
F 1 "0.1uF" H 2500 2500 50  0000 L CNN
F 2 "Capacitor_SMD:C_0603_1608Metric_Pad1.05x0.95mm_HandSolder" H 2750 2550 50  0001 C CNN
F 3 "~" H 2750 2550 50  0001 C CNN
	1    2750 2550
	1    0    0    -1  
$EndComp
$Comp
L iCE40HX1K-VQ100:iCE40HX1K-VQ100 U8
U 1 1 5EBF8A9B
P 3550 2350
F 0 "U8" H 5000 1650 50  0000 L CNN
F 1 "iCE40HX1K-VQ100" H 4750 1850 50  0000 L CNN
F 2 "NewFP:QFP50P1600X1600X120-100N" H 6400 3150 50  0001 L CNN
F 3 "http://uk.rs-online.com/web/p/products/7720045P" H 6400 3050 50  0001 L CNN
F 4 "FPGA iCE40 HX 1280 Cells 256MHz VTQFP100 iCE40HX1K-VQ100, FPGA iCE40 HX 1280 Cells, 64kbit, 160 Blocks, 1.14  1.26 V 100-Pin VQFP" H 6400 2950 50  0001 L CNN "Description"
F 5 "1.2" H 6400 2850 50  0001 L CNN "Height"
F 6 "7720045P" H 6400 2750 50  0001 L CNN "RS Part Number"
F 7 "http://uk.rs-online.com/web/p/products/7720045P" H 6400 2650 50  0001 L CNN "RS Price/Stock"
F 8 "Lattice Semiconductor" H 6400 2550 50  0001 L CNN "Manufacturer_Name"
F 9 "iCE40HX1K-VQ100" H 6400 2450 50  0001 L CNN "Manufacturer_Part_Number"
	1    3550 2350
	1    0    0    -1  
$EndComp
Wire Wire Line
	3550 3350 2600 3350
Connection ~ 2600 3350
$Comp
L power:GND #PWR0135
U 1 1 5ECF4B78
P 2600 3550
F 0 "#PWR0135" H 2600 3300 50  0001 C CNN
F 1 "GND" H 2650 3350 50  0000 C CNN
F 2 "" H 2600 3550 50  0001 C CNN
F 3 "" H 2600 3550 50  0001 C CNN
	1    2600 3550
	1    0    0    -1  
$EndComp
$Comp
L power:+1V2 #PWR0136
U 1 1 5ECF5147
P 7200 3750
F 0 "#PWR0136" H 7200 3600 50  0001 C CNN
F 1 "+1V2" H 7250 3950 50  0000 C CNN
F 2 "" H 7200 3750 50  0001 C CNN
F 3 "" H 7200 3750 50  0001 C CNN
	1    7200 3750
	1    0    0    -1  
$EndComp
$Comp
L Device:C_Small C?
U 1 1 5ECF514F
P 7200 3850
AR Path="/5E9C8987/5ECF514F" Ref="C?"  Part="1" 
AR Path="/5EA69A87/5ECF514F" Ref="C33"  Part="1" 
F 0 "C33" H 7292 3896 50  0000 L CNN
F 1 "0.1uF" H 7292 3805 50  0000 L CNN
F 2 "Capacitor_SMD:C_0603_1608Metric_Pad1.05x0.95mm_HandSolder" H 7200 3850 50  0001 C CNN
F 3 "~" H 7200 3850 50  0001 C CNN
	1    7200 3850
	1    0    0    -1  
$EndComp
Wire Wire Line
	6550 3750 7200 3750
Connection ~ 7200 3750
$Comp
L power:+1V2 #PWR0137
U 1 1 5ECF59FB
P 4650 6300
F 0 "#PWR0137" H 4650 6150 50  0001 C CNN
F 1 "+1V2" H 4700 6500 50  0000 C CNN
F 2 "" H 4650 6300 50  0001 C CNN
F 3 "" H 4650 6300 50  0001 C CNN
	1    4650 6300
	1    0    0    -1  
$EndComp
$Comp
L Device:C_Small C?
U 1 1 5ECF5A03
P 4650 6400
AR Path="/5E9C8987/5ECF5A03" Ref="C?"  Part="1" 
AR Path="/5EA69A87/5ECF5A03" Ref="C24"  Part="1" 
F 0 "C24" H 4742 6446 50  0000 L CNN
F 1 "0.1uF" H 4742 6355 50  0000 L CNN
F 2 "Capacitor_SMD:C_0603_1608Metric_Pad1.05x0.95mm_HandSolder" H 4650 6400 50  0001 C CNN
F 3 "~" H 4650 6400 50  0001 C CNN
	1    4650 6400
	1    0    0    -1  
$EndComp
Wire Wire Line
	4750 6300 4650 6300
Connection ~ 4650 6300
Wire Wire Line
	4750 6300 4750 5850
$Comp
L power:+1V2 #PWR0138
U 1 1 5ECF62C6
P 6650 750
F 0 "#PWR0138" H 6650 600 50  0001 C CNN
F 1 "+1V2" H 6700 950 50  0000 C CNN
F 2 "" H 6650 750 50  0001 C CNN
F 3 "" H 6650 750 50  0001 C CNN
	1    6650 750 
	1    0    0    -1  
$EndComp
$Comp
L Device:C_Small C?
U 1 1 5ECF62CE
P 6650 850
AR Path="/5E9C8987/5ECF62CE" Ref="C?"  Part="1" 
AR Path="/5EA69A87/5ECF62CE" Ref="C29"  Part="1" 
F 0 "C29" H 6742 896 50  0000 L CNN
F 1 "0.1uF" H 6742 805 50  0000 L CNN
F 2 "Capacitor_SMD:C_0603_1608Metric_Pad1.05x0.95mm_HandSolder" H 6650 850 50  0001 C CNN
F 3 "~" H 6650 850 50  0001 C CNN
	1    6650 850 
	1    0    0    -1  
$EndComp
$Comp
L power:GND #PWR0139
U 1 1 5ECF62D7
P 6650 950
F 0 "#PWR0139" H 6650 700 50  0001 C CNN
F 1 "GND" H 6700 750 50  0000 C CNN
F 2 "" H 6650 950 50  0001 C CNN
F 3 "" H 6650 950 50  0001 C CNN
	1    6650 950 
	1    0    0    -1  
$EndComp
Wire Wire Line
	6150 1350 6150 750 
Wire Wire Line
	6150 750  6650 750 
Connection ~ 6650 750 
$Comp
L power:+3.3V #PWR0140
U 1 1 5ECF7112
P 2750 2450
F 0 "#PWR0140" H 2750 2300 50  0001 C CNN
F 1 "+3.3V" H 2800 2650 50  0000 C CNN
F 2 "" H 2750 2450 50  0001 C CNN
F 3 "" H 2750 2450 50  0001 C CNN
	1    2750 2450
	1    0    0    -1  
$EndComp
$Comp
L power:GND #PWR0141
U 1 1 5ECF81AD
P 2750 2650
F 0 "#PWR0141" H 2750 2400 50  0001 C CNN
F 1 "GND" H 2650 2550 50  0000 C CNN
F 2 "" H 2750 2650 50  0001 C CNN
F 3 "" H 2750 2650 50  0001 C CNN
	1    2750 2650
	1    0    0    -1  
$EndComp
$Comp
L Device:C_Small C?
U 1 1 5ECFA6F9
P 2900 4550
AR Path="/5E9C8987/5ECFA6F9" Ref="C?"  Part="1" 
AR Path="/5EA69A87/5ECFA6F9" Ref="C21"  Part="1" 
F 0 "C21" H 2750 4650 50  0000 L CNN
F 1 "0.1uF" H 2650 4550 50  0000 L CNN
F 2 "Capacitor_SMD:C_0603_1608Metric_Pad1.05x0.95mm_HandSolder" H 2900 4550 50  0001 C CNN
F 3 "~" H 2900 4550 50  0001 C CNN
	1    2900 4550
	1    0    0    -1  
$EndComp
$Comp
L power:+3.3V #PWR0142
U 1 1 5ECFA700
P 2900 4450
F 0 "#PWR0142" H 2900 4300 50  0001 C CNN
F 1 "+3.3V" H 2950 4650 50  0000 C CNN
F 2 "" H 2900 4450 50  0001 C CNN
F 3 "" H 2900 4450 50  0001 C CNN
	1    2900 4450
	1    0    0    -1  
$EndComp
Connection ~ 2900 4450
$Comp
L power:GND #PWR0143
U 1 1 5ECFA707
P 2900 4650
F 0 "#PWR0143" H 2900 4400 50  0001 C CNN
F 1 "GND" H 2950 4450 50  0000 C CNN
F 2 "" H 2900 4650 50  0001 C CNN
F 3 "" H 2900 4650 50  0001 C CNN
	1    2900 4650
	1    0    0    -1  
$EndComp
Wire Wire Line
	2900 4450 3550 4450
$Comp
L Device:C_Small C?
U 1 1 5ECFB4DA
P 4250 6400
AR Path="/5E9C8987/5ECFB4DA" Ref="C?"  Part="1" 
AR Path="/5EA69A87/5ECFB4DA" Ref="C23"  Part="1" 
F 0 "C23" H 4342 6446 50  0000 L CNN
F 1 "0.1uF" H 4342 6355 50  0000 L CNN
F 2 "Capacitor_SMD:C_0603_1608Metric_Pad1.05x0.95mm_HandSolder" H 4250 6400 50  0001 C CNN
F 3 "~" H 4250 6400 50  0001 C CNN
	1    4250 6400
	1    0    0    -1  
$EndComp
$Comp
L power:+3.3V #PWR0144
U 1 1 5ECFB4E1
P 4250 6300
F 0 "#PWR0144" H 4250 6150 50  0001 C CNN
F 1 "+3.3V" H 4300 6500 50  0000 C CNN
F 2 "" H 4250 6300 50  0001 C CNN
F 3 "" H 4250 6300 50  0001 C CNN
	1    4250 6300
	1    0    0    -1  
$EndComp
Wire Wire Line
	4350 5850 4350 6300
Wire Wire Line
	4350 6300 4250 6300
Connection ~ 4250 6300
$Comp
L Device:C_Small C?
U 1 1 5ECFC87A
P 4950 6400
AR Path="/5E9C8987/5ECFC87A" Ref="C?"  Part="1" 
AR Path="/5EA69A87/5ECFC87A" Ref="C25"  Part="1" 
F 0 "C25" H 5042 6446 50  0000 L CNN
F 1 "0.1uF" H 5042 6355 50  0000 L CNN
F 2 "Capacitor_SMD:C_0603_1608Metric_Pad1.05x0.95mm_HandSolder" H 4950 6400 50  0001 C CNN
F 3 "~" H 4950 6400 50  0001 C CNN
	1    4950 6400
	1    0    0    -1  
$EndComp
$Comp
L power:+3.3V #PWR0145
U 1 1 5ECFC881
P 4950 6300
F 0 "#PWR0145" H 4950 6150 50  0001 C CNN
F 1 "+3.3V" H 5000 6500 50  0000 C CNN
F 2 "" H 4950 6300 50  0001 C CNN
F 3 "" H 4950 6300 50  0001 C CNN
	1    4950 6300
	1    0    0    -1  
$EndComp
Wire Wire Line
	5050 5850 5050 6300
Wire Wire Line
	5050 6300 4950 6300
Connection ~ 4950 6300
$Comp
L Device:C_Small C?
U 1 1 5ECFD1C1
P 6400 6400
AR Path="/5E9C8987/5ECFD1C1" Ref="C?"  Part="1" 
AR Path="/5EA69A87/5ECFD1C1" Ref="C28"  Part="1" 
F 0 "C28" H 6492 6446 50  0000 L CNN
F 1 "0.1uF" H 6492 6355 50  0000 L CNN
F 2 "Capacitor_SMD:C_0603_1608Metric_Pad1.05x0.95mm_HandSolder" H 6400 6400 50  0001 C CNN
F 3 "~" H 6400 6400 50  0001 C CNN
	1    6400 6400
	1    0    0    -1  
$EndComp
$Comp
L power:+3.3V #PWR0146
U 1 1 5ECFD1C8
P 6400 6300
F 0 "#PWR0146" H 6400 6150 50  0001 C CNN
F 1 "+3.3V" H 6450 6500 50  0000 C CNN
F 2 "" H 6400 6300 50  0001 C CNN
F 3 "" H 6400 6300 50  0001 C CNN
	1    6400 6300
	1    0    0    -1  
$EndComp
Wire Wire Line
	6250 5850 6250 6300
Wire Wire Line
	6250 6300 6400 6300
Connection ~ 6400 6300
$Comp
L Device:C_Small C?
U 1 1 5ECFD8E6
P 6950 4150
AR Path="/5E9C8987/5ECFD8E6" Ref="C?"  Part="1" 
AR Path="/5EA69A87/5ECFD8E6" Ref="C31"  Part="1" 
F 0 "C31" H 7042 4196 50  0000 L CNN
F 1 "0.1uF" H 7042 4105 50  0000 L CNN
F 2 "Capacitor_SMD:C_0603_1608Metric_Pad1.05x0.95mm_HandSolder" H 6950 4150 50  0001 C CNN
F 3 "~" H 6950 4150 50  0001 C CNN
	1    6950 4150
	1    0    0    -1  
$EndComp
$Comp
L power:+3.3V #PWR0147
U 1 1 5ECFD8ED
P 6950 4050
F 0 "#PWR0147" H 6950 3900 50  0001 C CNN
F 1 "+3.3V" H 7000 4250 50  0000 C CNN
F 2 "" H 6950 4050 50  0001 C CNN
F 3 "" H 6950 4050 50  0001 C CNN
	1    6950 4050
	1    0    0    -1  
$EndComp
$Comp
L power:GND #PWR0148
U 1 1 5ECFD8F3
P 7200 4350
F 0 "#PWR0148" H 7200 4100 50  0001 C CNN
F 1 "GND" H 7350 4300 50  0000 C CNN
F 2 "" H 7200 4350 50  0001 C CNN
F 3 "" H 7200 4350 50  0001 C CNN
	1    7200 4350
	1    0    0    -1  
$EndComp
Wire Wire Line
	6550 4050 6950 4050
Connection ~ 6950 4050
$Comp
L Device:C_Small C?
U 1 1 5ECFF0B5
P 6950 3250
AR Path="/5E9C8987/5ECFF0B5" Ref="C?"  Part="1" 
AR Path="/5EA69A87/5ECFF0B5" Ref="C30"  Part="1" 
F 0 "C30" H 7042 3296 50  0000 L CNN
F 1 "0.1uF" H 7042 3205 50  0000 L CNN
F 2 "Capacitor_SMD:C_0603_1608Metric_Pad1.05x0.95mm_HandSolder" H 6950 3250 50  0001 C CNN
F 3 "~" H 6950 3250 50  0001 C CNN
	1    6950 3250
	1    0    0    -1  
$EndComp
$Comp
L power:+3.3V #PWR0149
U 1 1 5ECFF0BC
P 6950 3150
F 0 "#PWR0149" H 6950 3000 50  0001 C CNN
F 1 "+3.3V" H 7000 3350 50  0000 C CNN
F 2 "" H 6950 3150 50  0001 C CNN
F 3 "" H 6950 3150 50  0001 C CNN
	1    6950 3150
	1    0    0    -1  
$EndComp
$Comp
L power:GND #PWR0150
U 1 1 5ECFF0C2
P 6950 3350
F 0 "#PWR0150" H 6950 3100 50  0001 C CNN
F 1 "GND" H 7000 3150 50  0000 C CNN
F 2 "" H 6950 3350 50  0001 C CNN
F 3 "" H 6950 3350 50  0001 C CNN
	1    6950 3350
	1    0    0    -1  
$EndComp
Wire Wire Line
	6550 3150 6950 3150
Connection ~ 6950 3150
$Comp
L Device:C_Small C?
U 1 1 5ECFFB5A
P 5450 850
AR Path="/5E9C8987/5ECFFB5A" Ref="C?"  Part="1" 
AR Path="/5EA69A87/5ECFFB5A" Ref="C27"  Part="1" 
F 0 "C27" H 5542 896 50  0000 L CNN
F 1 "0.1uF" H 5542 805 50  0000 L CNN
F 2 "Capacitor_SMD:C_0603_1608Metric_Pad1.05x0.95mm_HandSolder" H 5450 850 50  0001 C CNN
F 3 "~" H 5450 850 50  0001 C CNN
	1    5450 850 
	1    0    0    -1  
$EndComp
$Comp
L Device:C_Small C?
U 1 1 5ED00503
P 5200 850
AR Path="/5E9C8987/5ED00503" Ref="C?"  Part="1" 
AR Path="/5EA69A87/5ED00503" Ref="C26"  Part="1" 
F 0 "C26" H 5250 900 50  0000 L CNN
F 1 "0.1uF" H 5200 800 50  0000 L CNN
F 2 "Capacitor_SMD:C_0603_1608Metric_Pad1.05x0.95mm_HandSolder" H 5200 850 50  0001 C CNN
F 3 "~" H 5200 850 50  0001 C CNN
	1    5200 850 
	1    0    0    -1  
$EndComp
$Comp
L power:+3.3V #PWR0151
U 1 1 5ED0050A
P 5450 750
F 0 "#PWR0151" H 5450 600 50  0001 C CNN
F 1 "+3.3V" H 5500 950 50  0000 C CNN
F 2 "" H 5450 750 50  0001 C CNN
F 3 "" H 5450 750 50  0001 C CNN
	1    5450 750 
	1    0    0    -1  
$EndComp
Wire Wire Line
	4650 1350 4650 750 
Wire Wire Line
	4650 750  5050 750 
Connection ~ 5200 750 
Wire Wire Line
	5050 1350 5050 750 
Connection ~ 5050 750 
Wire Wire Line
	5050 750  5200 750 
$Comp
L Diode:1N5819 D5
U 1 1 5ED0687D
P 6700 2350
F 0 "D5" H 6700 2600 50  0000 C CNN
F 1 "1N5819" H 6700 2500 50  0000 C CNN
F 2 "Diode_SMD:D_SOD-123F" H 6700 2175 50  0001 C CNN
F 3 "http://www.vishay.com/docs/88525/1n5817.pdf" H 6700 2350 50  0001 C CNN
	1    6700 2350
	1    0    0    -1  
$EndComp
$Comp
L Device:C_Small C?
U 1 1 5ED06DE1
P 7000 2450
AR Path="/5E9C8987/5ED06DE1" Ref="C?"  Part="1" 
AR Path="/5EA69A87/5ED06DE1" Ref="C32"  Part="1" 
F 0 "C32" H 7092 2496 50  0000 L CNN
F 1 "0.1uF" H 7092 2405 50  0000 L CNN
F 2 "Capacitor_SMD:C_0603_1608Metric_Pad1.05x0.95mm_HandSolder" H 7000 2450 50  0001 C CNN
F 3 "~" H 7000 2450 50  0001 C CNN
	1    7000 2450
	1    0    0    -1  
$EndComp
$Comp
L power:+3.3V #PWR0152
U 1 1 5ED06DE8
P 7000 2350
F 0 "#PWR0152" H 7000 2200 50  0001 C CNN
F 1 "+3.3V" H 7050 2550 50  0000 C CNN
F 2 "" H 7000 2350 50  0001 C CNN
F 3 "" H 7000 2350 50  0001 C CNN
	1    7000 2350
	1    0    0    -1  
$EndComp
$Comp
L power:GND #PWR0153
U 1 1 5ED06DEE
P 7000 2550
F 0 "#PWR0153" H 7000 2300 50  0001 C CNN
F 1 "GND" H 7050 2350 50  0000 C CNN
F 2 "" H 7000 2550 50  0001 C CNN
F 3 "" H 7000 2550 50  0001 C CNN
	1    7000 2550
	1    0    0    -1  
$EndComp
Wire Wire Line
	6850 2350 7000 2350
Connection ~ 7000 2350
$Comp
L Device:R R18
U 1 1 5ED07D49
P 5550 6350
F 0 "R18" H 5400 6400 50  0000 L CNN
F 1 "1K" H 5400 6300 50  0000 L CNN
F 2 "Resistor_SMD:R_0603_1608Metric_Pad1.05x0.95mm_HandSolder" V 5480 6350 50  0001 C CNN
F 3 "~" H 5550 6350 50  0001 C CNN
	1    5550 6350
	1    0    0    -1  
$EndComp
Wire Wire Line
	5550 5850 5550 6200
$Comp
L Device:LED D4
U 1 1 5ED0823F
P 5550 6650
F 0 "D4" V 5650 6650 50  0000 R CNN
F 1 "LED" V 5450 6800 50  0000 R CNN
F 2 "Diode_SMD:D_0805_2012Metric_Pad1.15x1.40mm_HandSolder" H 5550 6650 50  0001 C CNN
F 3 "~" H 5550 6650 50  0001 C CNN
	1    5550 6650
	0    -1   -1   0   
$EndComp
$Comp
L power:GND #PWR0154
U 1 1 5ED08319
P 5550 6950
F 0 "#PWR0154" H 5550 6700 50  0001 C CNN
F 1 "GND" H 5600 6750 50  0000 C CNN
F 2 "" H 5550 6950 50  0001 C CNN
F 3 "" H 5550 6950 50  0001 C CNN
	1    5550 6950
	1    0    0    -1  
$EndComp
$Comp
L Device:C_Small C?
U 1 1 5ED0904A
P 7450 6050
AR Path="/5E9C8987/5ED0904A" Ref="C?"  Part="1" 
AR Path="/5EA69A87/5ED0904A" Ref="C34"  Part="1" 
F 0 "C34" H 7542 6096 50  0000 L CNN
F 1 "0.1uF" H 7542 6005 50  0000 L CNN
F 2 "Capacitor_SMD:C_0603_1608Metric_Pad1.05x0.95mm_HandSolder" H 7450 6050 50  0001 C CNN
F 3 "~" H 7450 6050 50  0001 C CNN
	1    7450 6050
	1    0    0    -1  
$EndComp
$Comp
L power:GND #PWR0155
U 1 1 5ED09051
P 7550 6250
F 0 "#PWR0155" H 7550 6000 50  0001 C CNN
F 1 "GND" H 7550 6100 50  0000 C CNN
F 2 "" H 7550 6250 50  0001 C CNN
F 3 "" H 7550 6250 50  0001 C CNN
	1    7550 6250
	1    0    0    -1  
$EndComp
$Comp
L Device:R R19
U 1 1 5ED0AD36
P 8150 5850
F 0 "R19" V 8250 5800 50  0000 L CNN
F 1 "1K" V 8150 5800 50  0000 L CNN
F 2 "Resistor_SMD:R_0603_1608Metric_Pad1.05x0.95mm_HandSolder" V 8080 5850 50  0001 C CNN
F 3 "~" H 8150 5850 50  0001 C CNN
	1    8150 5850
	0    -1   -1   0   
$EndComp
Wire Wire Line
	5650 5850 5650 6200
Text Label 5650 6200 1    50   ~ 0
CRESET_B
Text Label 7450 5850 2    50   ~ 0
CRESET_B
$Comp
L power:+3.3V #PWR0156
U 1 1 5ED0F601
P 8350 5650
F 0 "#PWR0156" H 8350 5500 50  0001 C CNN
F 1 "+3.3V" H 8400 5850 50  0000 C CNN
F 2 "" H 8350 5650 50  0001 C CNN
F 3 "" H 8350 5650 50  0001 C CNN
	1    8350 5650
	1    0    0    -1  
$EndComp
Wire Wire Line
	8350 5650 8350 5850
Wire Wire Line
	8350 5850 8300 5850
Wire Wire Line
	7450 6150 7450 6250
Wire Wire Line
	7450 6250 7550 6250
Connection ~ 7550 6250
Wire Wire Line
	7550 6250 7800 6250
Wire Wire Line
	4250 6500 4250 6850
Wire Wire Line
	4250 6850 4450 6850
Wire Wire Line
	4650 6500 4650 6850
Connection ~ 4650 6850
Wire Wire Line
	4950 6500 4950 6850
Wire Wire Line
	4650 6850 4950 6850
Connection ~ 4950 6850
Wire Wire Line
	5550 6850 5950 6850
Wire Wire Line
	6400 6500 6400 6850
Wire Wire Line
	5950 5850 5950 6850
Connection ~ 5950 6850
Wire Wire Line
	5950 6850 6400 6850
Text Label 6150 6200 1    50   ~ 0
NSSF
Text Label 6050 6200 1    50   ~ 0
SCKF
Text Label 5750 6200 1    50   ~ 0
MISOF
Text Label 5850 6200 1    50   ~ 0
MOSIF
Wire Wire Line
	6050 6200 6050 5850
Wire Wire Line
	5750 6200 5750 5850
Wire Wire Line
	5850 6200 5850 5850
Wire Wire Line
	2600 3550 3050 3550
Wire Wire Line
	3050 3550 3050 3950
Wire Wire Line
	3050 3950 3550 3950
Connection ~ 2600 3550
Wire Wire Line
	3550 2850 2550 2850
Wire Wire Line
	2550 2850 2550 2450
Wire Wire Line
	2550 2450 2750 2450
Connection ~ 2750 2450
Wire Wire Line
	2750 2650 2900 2650
Wire Wire Line
	2900 2650 2900 2750
Wire Wire Line
	2900 2750 3550 2750
Connection ~ 2750 2650
Wire Wire Line
	3550 4550 3200 4550
Wire Wire Line
	3200 4550 3200 4650
Wire Wire Line
	3200 4650 2900 4650
Connection ~ 2900 4650
Wire Wire Line
	4450 5850 4450 6850
Connection ~ 4450 6850
Wire Wire Line
	4450 6850 4650 6850
Wire Wire Line
	5150 5850 5150 6850
Wire Wire Line
	4950 6850 5150 6850
Connection ~ 5150 6850
Wire Wire Line
	5150 6850 5550 6850
Connection ~ 5550 6850
Wire Wire Line
	5550 6800 5550 6850
Wire Wire Line
	5550 6950 5550 6850
Wire Wire Line
	6550 4350 6950 4350
Wire Wire Line
	6950 4350 6950 4250
Connection ~ 6950 4350
Wire Wire Line
	6950 4350 7200 4350
Wire Wire Line
	7200 4350 7200 3950
Wire Wire Line
	6550 2850 6900 2850
Wire Wire Line
	6900 2850 6900 2550
Wire Wire Line
	6900 2550 7000 2550
Connection ~ 7000 2550
Wire Wire Line
	4050 1350 4050 750 
Wire Wire Line
	4050 750  3850 750 
Wire Wire Line
	3850 750  3850 800 
$Comp
L power:GND #PWR0157
U 1 1 5ED5111B
P 3850 800
F 0 "#PWR0157" H 3850 550 50  0001 C CNN
F 1 "GND" H 3900 600 50  0000 C CNN
F 2 "" H 3850 800 50  0001 C CNN
F 3 "" H 3850 800 50  0001 C CNN
	1    3850 800 
	1    0    0    -1  
$EndComp
Connection ~ 5450 750 
Wire Wire Line
	5200 750  5450 750 
$Comp
L power:GND #PWR0158
U 1 1 5ED00510
P 5300 1000
F 0 "#PWR0158" H 5300 750 50  0001 C CNN
F 1 "GND" H 5300 850 50  0000 C CNN
F 2 "" H 5300 1000 50  0001 C CNN
F 3 "" H 5300 1000 50  0001 C CNN
	1    5300 1000
	1    0    0    -1  
$EndComp
Wire Wire Line
	5200 950  5200 1000
Wire Wire Line
	5200 1000 5300 1000
Wire Wire Line
	5450 950  5450 1000
Wire Wire Line
	5450 1000 5300 1000
Connection ~ 5300 1000
Wire Wire Line
	5450 1350 5450 1000
Connection ~ 5450 1000
$Comp
L Interface_UART:MAX485E U?
U 1 1 5ED6B062
P 9450 4300
AR Path="/5E9C8987/5ED6B062" Ref="U?"  Part="1" 
AR Path="/5EA69A87/5ED6B062" Ref="U9"  Part="1" 
F 0 "U9" H 9450 4978 50  0000 C CNN
F 1 "MAX485E" H 9450 4887 50  0000 C CNN
F 2 "MAX485ECSA_:SOIC127P600X175-8N" H 9450 3600 50  0001 C CNN
F 3 "https://datasheets.maximintegrated.com/en/ds/MAX1487E-MAX491E.pdf" H 9450 4350 50  0001 C CNN
	1    9450 4300
	1    0    0    -1  
$EndComp
Wire Wire Line
	9050 4300 8900 4300
Wire Wire Line
	8900 4300 8900 4350
Wire Wire Line
	8900 4400 9050 4400
Text Label 8400 4350 0    50   ~ 0
Direction485
Wire Wire Line
	8400 4350 8900 4350
Wire Wire Line
	8400 4200 9050 4200
Wire Wire Line
	9050 4500 8400 4500
Text Label 8400 4200 0    50   ~ 0
USART_RX
Text Label 8400 4500 0    50   ~ 0
USART_TX
Text Label 9950 4200 0    50   ~ 0
Motor_D+
Text Label 9950 4500 0    50   ~ 0
Motor_D-
$Comp
L power:GND #PWR?
U 1 1 5ED6B074
P 9450 4900
AR Path="/5E9C8987/5ED6B074" Ref="#PWR?"  Part="1" 
AR Path="/5EA69A87/5ED6B074" Ref="#PWR0159"  Part="1" 
F 0 "#PWR0159" H 9450 4650 50  0001 C CNN
F 1 "GND" H 9455 4727 50  0000 C CNN
F 2 "" H 9450 4900 50  0001 C CNN
F 3 "" H 9450 4900 50  0001 C CNN
	1    9450 4900
	1    0    0    -1  
$EndComp
$Comp
L Device:C_Small C?
U 1 1 5ED6B07A
P 10050 3650
AR Path="/5E9C8987/5ED6B07A" Ref="C?"  Part="1" 
AR Path="/5EA69A87/5ED6B07A" Ref="C35"  Part="1" 
F 0 "C35" H 10142 3696 50  0000 L CNN
F 1 "100uF" H 10142 3605 50  0000 L CNN
F 2 "Capacitor_SMD:C_1206_3216Metric_Pad1.42x1.75mm_HandSolder" H 10050 3650 50  0001 C CNN
F 3 "~" H 10050 3650 50  0001 C CNN
	1    10050 3650
	1    0    0    -1  
$EndComp
$Comp
L power:+5V #PWR?
U 1 1 5ED6B081
P 9700 3550
AR Path="/5E9C8987/5ED6B081" Ref="#PWR?"  Part="1" 
AR Path="/5EA69A87/5ED6B081" Ref="#PWR0160"  Part="1" 
F 0 "#PWR0160" H 9700 3400 50  0001 C CNN
F 1 "+5V" H 9715 3723 50  0000 C CNN
F 2 "" H 9700 3550 50  0001 C CNN
F 3 "" H 9700 3550 50  0001 C CNN
	1    9700 3550
	1    0    0    -1  
$EndComp
Wire Wire Line
	9450 3800 9700 3800
$Comp
L power:GND #PWR?
U 1 1 5ED6B088
P 10050 3750
AR Path="/5E9C8987/5ED6B088" Ref="#PWR?"  Part="1" 
AR Path="/5EA69A87/5ED6B088" Ref="#PWR0161"  Part="1" 
F 0 "#PWR0161" H 10050 3500 50  0001 C CNN
F 1 "GND" H 10055 3577 50  0000 C CNN
F 2 "" H 10050 3750 50  0001 C CNN
F 3 "" H 10050 3750 50  0001 C CNN
	1    10050 3750
	1    0    0    -1  
$EndComp
Wire Wire Line
	9700 3550 9700 3800
Connection ~ 9700 3550
Wire Wire Line
	9700 3550 10050 3550
Wire Wire Line
	9850 4200 10300 4200
Wire Wire Line
	9850 4500 10300 4500
Connection ~ 8900 4350
Wire Wire Line
	8900 4350 8900 4400
Text Label 6650 4650 0    50   ~ 0
USART_RX
Text Label 6650 4750 0    50   ~ 0
USART_TX
Wire Wire Line
	6550 4750 7000 4750
Wire Wire Line
	6550 4550 7000 4550
Text Label 6650 4550 0    50   ~ 0
Direction485
Wire Wire Line
	6550 4650 7000 4650
Connection ~ 7200 4350
Text Label 3100 2550 0    50   ~ 0
PWM2
Text Label 3100 2650 0    50   ~ 0
PWM3
Wire Wire Line
	3100 2550 3550 2550
Wire Wire Line
	3100 2650 3550 2650
$Comp
L B4B-EH-A_LF__SN_:B4B-EH-A_LF__SN_ J?
U 1 1 5EE2057E
P 9850 5750
AR Path="/5E9C8987/5EE2057E" Ref="J?"  Part="1" 
AR Path="/5EA69A87/5EE2057E" Ref="J3"  Part="1" 
F 0 "J3" H 10300 5600 50  0000 L CNN
F 1 "B4B-EH-A_LF__SN_" H 9800 5300 50  0000 L CNN
F 2 "Connector_JST:JST_EH_B04B-EH-A_1x04_P2.50mm_Vertical" H 10500 5850 50  0001 L CNN
F 3 "http://docs-emea.rs-online.com/webdocs/1363/0900766b8136354a.pdf" H 10500 5750 50  0001 L CNN
F 4 "JST (JAPAN SOLDERLESS TERMINALS) - B4B-EH-A(LF)(SN) - CONNECTOR, HEADER, THT, 2.5MM, 4WAY" H 10500 5650 50  0001 L CNN "Description"
F 5 "6" H 10500 5550 50  0001 L CNN "Height"
F 6 "JST (JAPAN SOLDERLESS TERMINALS)" H 10500 5450 50  0001 L CNN "Manufacturer_Name"
F 7 "B4B-EH-A(LF)(SN)" H 10500 5350 50  0001 L CNN "Manufacturer_Part_Number"
F 8 "" H 10500 5250 50  0001 L CNN "Mouser Part Number"
F 9 "" H 10500 5150 50  0001 L CNN "Mouser Price/Stock"
F 10 "" H 10500 5050 50  0001 L CNN "RS Part Number"
F 11 "" H 10500 4950 50  0001 L CNN "RS Price/Stock"
	1    9850 5750
	1    0    0    -1  
$EndComp
Text Label 9400 5950 0    50   ~ 0
Motor_D+
Text Label 9400 6050 0    50   ~ 0
Motor_D-
Wire Wire Line
	9400 5950 9850 5950
Wire Wire Line
	9400 6050 9850 6050
$Comp
L power:GND #PWR?
U 1 1 5EE20589
P 9950 5450
AR Path="/5E9C8987/5EE20589" Ref="#PWR?"  Part="1" 
AR Path="/5EA69A87/5EE20589" Ref="#PWR0184"  Part="1" 
F 0 "#PWR0184" H 9950 5200 50  0001 C CNN
F 1 "GND" H 9955 5277 50  0000 C CNN
F 2 "" H 9950 5450 50  0001 C CNN
F 3 "" H 9950 5450 50  0001 C CNN
	1    9950 5450
	1    0    0    -1  
$EndComp
Wire Wire Line
	9850 5450 9850 5750
$Comp
L power:+24V #PWR?
U 1 1 5EE20591
P 9600 5650
AR Path="/5E9C8987/5EE20591" Ref="#PWR?"  Part="1" 
AR Path="/5EA69A87/5EE20591" Ref="#PWR0185"  Part="1" 
F 0 "#PWR0185" H 9600 5500 50  0001 C CNN
F 1 "+24V" H 9650 5850 50  0000 C CNN
F 2 "" H 9600 5650 50  0001 C CNN
F 3 "" H 9600 5650 50  0001 C CNN
	1    9600 5650
	1    0    0    -1  
$EndComp
Wire Wire Line
	9600 5650 9600 5850
Wire Wire Line
	9600 5850 9850 5850
Wire Wire Line
	9950 5450 9850 5450
Text HLabel 1050 1700 0    50   BiDi ~ 0
SPIF[0..3]
Entry Wire Line
	1200 1700 1300 1800
Entry Wire Line
	1200 1800 1300 1900
Entry Wire Line
	1200 1900 1300 2000
Entry Wire Line
	1200 2000 1300 2100
Wire Bus Line
	1200 1700 1050 1700
Text Label 1300 1800 0    50   ~ 0
SPIF0
Text Label 1300 1900 0    50   ~ 0
SPIF1
Text Label 1300 2000 0    50   ~ 0
SPIF2
Text Label 1300 2100 0    50   ~ 0
SPIF3
Wire Wire Line
	1300 1800 1750 1800
Wire Wire Line
	1300 1900 1750 1900
Wire Wire Line
	1300 2000 1750 2000
Wire Wire Line
	1300 2100 1750 2100
Text Label 1600 1800 0    50   ~ 0
NSSF
Text Label 1600 1900 0    50   ~ 0
SCKF
Text Label 1600 2000 0    50   ~ 0
MISOF
Text Label 1600 2100 0    50   ~ 0
MOSIF
Text HLabel 1050 2450 0    50   BiDi ~ 0
PWM[0..3]
Entry Wire Line
	1200 2450 1300 2550
Entry Wire Line
	1200 2550 1300 2650
Entry Wire Line
	1200 2650 1300 2750
Entry Wire Line
	1200 2750 1300 2850
Wire Bus Line
	1200 2450 1050 2450
Text Label 1550 2550 0    50   ~ 0
PWM0
Text Label 1550 2650 0    50   ~ 0
PWM1
Text Label 1550 2750 0    50   ~ 0
PWM2
Text Label 1550 2850 0    50   ~ 0
PWM3
Wire Wire Line
	1300 2550 1750 2550
Wire Wire Line
	1300 2650 1750 2650
Wire Wire Line
	1300 2750 1750 2750
Wire Wire Line
	1300 2850 1750 2850
Wire Wire Line
	6150 5850 6150 6200
Wire Wire Line
	7450 5850 7450 5950
Connection ~ 7450 5850
Wire Wire Line
	7450 5850 7100 5850
Wire Wire Line
	7450 5850 7800 5850
Wire Wire Line
	8000 5850 7800 5850
Connection ~ 7800 5850
$Comp
L Switch:SW_Push SW3
U 1 1 5ED099F2
P 7800 6050
F 0 "SW3" V 7850 6000 50  0000 R CNN
F 1 "SW_Push" V 7700 6000 50  0000 R CNN
F 2 "Button_Switch_SMD:SW_SPST_B3S-1100" H 7800 6250 50  0001 C CNN
F 3 "" H 7800 6250 50  0001 C CNN
	1    7800 6050
	0    -1   -1   0   
$EndComp
Text Label 3100 2350 0    50   ~ 0
PWM0
Text Label 3100 2450 0    50   ~ 0
PWM1
Wire Wire Line
	3100 2350 3550 2350
Wire Wire Line
	3100 2450 3550 2450
NoConn ~ 6250 1350
NoConn ~ 6050 1350
NoConn ~ 5950 1350
NoConn ~ 5850 1350
NoConn ~ 5750 1350
NoConn ~ 5650 1350
NoConn ~ 5550 1350
NoConn ~ 5350 1350
NoConn ~ 5250 1350
NoConn ~ 4950 1350
NoConn ~ 4850 1350
NoConn ~ 4750 1350
NoConn ~ 4550 1350
NoConn ~ 4450 1350
NoConn ~ 4350 1350
NoConn ~ 4250 1350
NoConn ~ 4150 1350
NoConn ~ 3950 1350
NoConn ~ 3850 1350
NoConn ~ 3550 2950
NoConn ~ 3550 3050
NoConn ~ 3550 3150
NoConn ~ 3550 3250
NoConn ~ 3550 3450
NoConn ~ 3550 3550
NoConn ~ 3550 3650
NoConn ~ 3550 3750
NoConn ~ 3550 3850
NoConn ~ 3550 4050
NoConn ~ 3550 4150
NoConn ~ 3550 4250
NoConn ~ 3550 4350
NoConn ~ 3550 4650
NoConn ~ 3550 4750
NoConn ~ 3850 5850
NoConn ~ 3950 5850
NoConn ~ 4050 5850
NoConn ~ 4250 5850
NoConn ~ 4150 5850
NoConn ~ 4550 5850
NoConn ~ 4650 5850
NoConn ~ 4850 5850
NoConn ~ 4950 5850
NoConn ~ 5250 5850
NoConn ~ 5350 5850
NoConn ~ 5450 5850
NoConn ~ 6550 4450
NoConn ~ 6550 4250
NoConn ~ 6550 4150
NoConn ~ 6550 3950
NoConn ~ 6550 3850
NoConn ~ 6550 3650
NoConn ~ 6550 3550
NoConn ~ 6550 3450
NoConn ~ 6550 3350
NoConn ~ 6550 3250
NoConn ~ 6550 3050
NoConn ~ 6550 2950
NoConn ~ 6550 2750
NoConn ~ 6550 2650
NoConn ~ 6550 2550
NoConn ~ 6550 2450
Wire Bus Line
	1200 1700 1200 2000
Wire Bus Line
	1200 2450 1200 2750
$EndSCHEMATC
