EESchema Schematic File Version 4
LIBS:RobotIM-cache
EELAYER 26 0
EELAYER END
$Descr A4 11693 8268
encoding utf-8
Sheet 2 6
Title ""
Date ""
Rev ""
Comp ""
Comment1 ""
Comment2 ""
Comment3 ""
Comment4 ""
$EndDescr
$Comp
L Power_Protection:SP0502BAHT D?
U 1 1 5EA5662A
P 4400 4750
AR Path="/5EA5662A" Ref="D?"  Part="1" 
AR Path="/5EA55D74/5EA5662A" Ref="D3"  Part="1" 
F 0 "D3" H 4605 4796 50  0000 L CNN
F 1 "SP0502BAHT" H 4605 4705 50  0000 L CNN
F 2 "Package_TO_SOT_SMD:SOT-23" H 4625 4700 50  0001 L CNN
F 3 "http://www.littelfuse.com/~/media/files/littelfuse/technical%20resources/documents/data%20sheets/sp05xxba.pdf" H 4525 4875 50  0001 C CNN
	1    4400 4750
	1    0    0    -1  
$EndComp
$Comp
L Device:L SRF?
U 1 1 5EA56631
P 4800 4300
AR Path="/5EA56631" Ref="SRF?"  Part="1" 
AR Path="/5EA55D74/5EA56631" Ref="SRF1"  Part="1" 
F 0 "SRF1" V 4990 4300 50  0000 C CNN
F 1 "L" V 4899 4300 50  0000 C CNN
F 2 "Inductor_SMD:L_0805_2012Metric_Pad1.15x1.40mm_HandSolder" H 4800 4300 50  0001 C CNN
F 3 "~" H 4800 4300 50  0001 C CNN
	1    4800 4300
	0    -1   -1   0   
$EndComp
$Comp
L Device:L SRF?
U 1 1 5EA56638
P 4800 4400
AR Path="/5EA56638" Ref="SRF?"  Part="1" 
AR Path="/5EA55D74/5EA56638" Ref="SRF2"  Part="1" 
F 0 "SRF2" V 4898 4400 50  0000 C CNN
F 1 "L" V 4989 4400 50  0000 C CNN
F 2 "Inductor_SMD:L_0805_2012Metric_Pad1.15x1.40mm_HandSolder" H 4800 4400 50  0001 C CNN
F 3 "~" H 4800 4400 50  0001 C CNN
	1    4800 4400
	0    1    1    0   
$EndComp
Wire Wire Line
	4200 4400 4300 4400
Wire Wire Line
	4650 4300 4500 4300
$Comp
L Device:R R?
U 1 1 5EA56641
P 5250 4300
AR Path="/5EA56641" Ref="R?"  Part="1" 
AR Path="/5EA55D74/5EA56641" Ref="R11"  Part="1" 
F 0 "R11" V 5457 4300 50  0000 C CNN
F 1 "0k" V 5366 4300 50  0000 C CNN
F 2 "Resistor_SMD:R_0603_1608Metric_Pad1.05x0.95mm_HandSolder" V 5180 4300 50  0001 C CNN
F 3 "~" H 5250 4300 50  0001 C CNN
	1    5250 4300
	0    -1   -1   0   
$EndComp
$Comp
L Device:R R?
U 1 1 5EA56648
P 5250 4400
AR Path="/5EA56648" Ref="R?"  Part="1" 
AR Path="/5EA55D74/5EA56648" Ref="R12"  Part="1" 
F 0 "R12" V 5135 4400 50  0000 C CNN
F 1 "0K" V 5044 4400 50  0000 C CNN
F 2 "Resistor_SMD:R_0603_1608Metric_Pad1.05x0.95mm_HandSolder" V 5180 4400 50  0001 C CNN
F 3 "~" H 5250 4400 50  0001 C CNN
	1    5250 4400
	0    -1   -1   0   
$EndComp
Wire Wire Line
	4950 4300 5100 4300
Wire Wire Line
	4950 4400 5100 4400
Wire Wire Line
	4300 4550 4300 4400
Connection ~ 4300 4400
Wire Wire Line
	4300 4400 4650 4400
Wire Wire Line
	4500 4550 4500 4300
Connection ~ 4500 4300
Wire Wire Line
	4500 4300 4200 4300
$Comp
L power:GND #PWR?
U 1 1 5EA56657
P 4400 4950
AR Path="/5EA56657" Ref="#PWR?"  Part="1" 
AR Path="/5EA55D74/5EA56657" Ref="#PWR0120"  Part="1" 
F 0 "#PWR0120" H 4400 4700 50  0001 C CNN
F 1 "GND" H 4405 4777 50  0000 C CNN
F 2 "" H 4400 4950 50  0001 C CNN
F 3 "" H 4400 4950 50  0001 C CNN
	1    4400 4950
	1    0    0    -1  
$EndComp
$Comp
L Device:C_Small C?
U 1 1 5EA5665D
P 3750 3600
AR Path="/5EA5665D" Ref="C?"  Part="1" 
AR Path="/5EA55D74/5EA5665D" Ref="C12"  Part="1" 
F 0 "C12" H 3842 3646 50  0000 L CNN
F 1 "22uF" H 3842 3555 50  0000 L CNN
F 2 "Capacitor_SMD:C_1206_3216Metric_Pad1.42x1.75mm_HandSolder" H 3750 3600 50  0001 C CNN
F 3 "~" H 3750 3600 50  0001 C CNN
	1    3750 3600
	1    0    0    -1  
$EndComp
$Comp
L Device:C_Small C?
U 1 1 5EA56664
P 4000 3600
AR Path="/5EA56664" Ref="C?"  Part="1" 
AR Path="/5EA55D74/5EA56664" Ref="C13"  Part="1" 
F 0 "C13" H 4092 3646 50  0000 L CNN
F 1 "0.1uF" H 4092 3555 50  0000 L CNN
F 2 "Capacitor_SMD:C_0603_1608Metric_Pad1.05x0.95mm_HandSolder" H 4000 3600 50  0001 C CNN
F 3 "~" H 4000 3600 50  0001 C CNN
	1    4000 3600
	1    0    0    -1  
$EndComp
$Comp
L power:GND #PWR?
U 1 1 5EA56672
P 3550 3750
AR Path="/5EA56672" Ref="#PWR?"  Part="1" 
AR Path="/5EA55D74/5EA56672" Ref="#PWR0121"  Part="1" 
F 0 "#PWR0121" H 3550 3500 50  0001 C CNN
F 1 "GND" H 3555 3577 50  0000 C CNN
F 2 "" H 3550 3750 50  0001 C CNN
F 3 "" H 3550 3750 50  0001 C CNN
	1    3550 3750
	1    0    0    -1  
$EndComp
$Comp
L Device:L L?
U 1 1 5EA56678
P 3300 3400
AR Path="/5EA56678" Ref="L?"  Part="1" 
AR Path="/5EA55D74/5EA56678" Ref="L1"  Part="1" 
F 0 "L1" V 3490 3400 50  0000 C CNN
F 1 "742792651" V 3399 3400 50  0000 C CNN
F 2 "Inductor_SMD:L_0805_2012Metric" H 3300 3400 50  0001 C CNN
F 3 "~" H 3300 3400 50  0001 C CNN
	1    3300 3400
	0    -1   -1   0   
$EndComp
Wire Wire Line
	3750 3500 3750 3400
Wire Wire Line
	4000 3500 4000 3400
Connection ~ 3550 3700
Wire Wire Line
	3550 3700 3550 3650
Wire Wire Line
	3550 3750 3550 3700
Wire Wire Line
	4200 4100 4350 4100
Wire Wire Line
	4350 4100 4350 3400
$Comp
L power:GND #PWR?
U 1 1 5EA5668B
P 3850 4950
AR Path="/5EA5668B" Ref="#PWR?"  Part="1" 
AR Path="/5EA55D74/5EA5668B" Ref="#PWR0122"  Part="1" 
F 0 "#PWR0122" H 3850 4700 50  0001 C CNN
F 1 "GND" H 3855 4777 50  0000 C CNN
F 2 "" H 3850 4950 50  0001 C CNN
F 3 "" H 3850 4950 50  0001 C CNN
	1    3850 4950
	1    0    0    -1  
$EndComp
Wire Wire Line
	3800 4700 3850 4700
Wire Wire Line
	3850 4700 3850 4950
Wire Wire Line
	3900 4700 3850 4700
Connection ~ 3850 4700
Wire Wire Line
	6200 2300 6200 2000
Wire Wire Line
	5600 2600 5100 2600
Text Label 5100 2600 0    50   ~ 0
TMS
$Comp
L Device:C_Small C?
U 1 1 5EA56698
P 5350 2150
AR Path="/5EA56698" Ref="C?"  Part="1" 
AR Path="/5EA55D74/5EA56698" Ref="C14"  Part="1" 
F 0 "C14" H 5442 2196 50  0000 L CNN
F 1 "22uF" H 5442 2105 50  0000 L CNN
F 2 "Capacitor_SMD:C_1206_3216Metric_Pad1.42x1.75mm_HandSolder" H 5350 2150 50  0001 C CNN
F 3 "~" H 5350 2150 50  0001 C CNN
	1    5350 2150
	1    0    0    -1  
$EndComp
$Comp
L Device:C_Small C?
U 1 1 5EA5669F
P 5600 2150
AR Path="/5EA5669F" Ref="C?"  Part="1" 
AR Path="/5EA55D74/5EA5669F" Ref="C15"  Part="1" 
F 0 "C15" H 5692 2196 50  0000 L CNN
F 1 "0.1uF" H 5692 2105 50  0000 L CNN
F 2 "Capacitor_SMD:C_0603_1608Metric_Pad1.05x0.95mm_HandSolder" H 5600 2150 50  0001 C CNN
F 3 "~" H 5600 2150 50  0001 C CNN
	1    5600 2150
	1    0    0    -1  
$EndComp
Wire Wire Line
	5350 2050 5350 2000
Wire Wire Line
	5200 2000 5350 2000
Connection ~ 5350 2000
Wire Wire Line
	5350 2000 5600 2000
Wire Wire Line
	5600 2050 5600 2000
Connection ~ 5600 2000
Wire Wire Line
	5600 2000 6200 2000
Wire Wire Line
	5600 2250 5450 2250
Wire Wire Line
	5450 2250 5350 2250
$Comp
L power:GND #PWR?
U 1 1 5EA566B0
P 5450 2250
AR Path="/5EA566B0" Ref="#PWR?"  Part="1" 
AR Path="/5EA55D74/5EA566B0" Ref="#PWR0123"  Part="1" 
F 0 "#PWR0123" H 5450 2000 50  0001 C CNN
F 1 "GND" H 5455 2077 50  0000 C CNN
F 2 "" H 5450 2250 50  0001 C CNN
F 3 "" H 5450 2250 50  0001 C CNN
	1    5450 2250
	1    0    0    -1  
$EndComp
$Comp
L MCU_Module2:Omega2+ U?
U 1 1 5EA566B6
P 6300 3500
AR Path="/5EA566B6" Ref="U?"  Part="1" 
AR Path="/5EA55D74/5EA566B6" Ref="U7"  Part="1" 
F 0 "U7" H 6300 2214 50  0000 C CNN
F 1 "Omega2+" H 6650 2350 50  0000 C CNN
F 2 "OM-O2P:OMO2P" H 6300 2000 50  0001 C CNN
F 3 "" H 3100 2350 50  0001 C CNN
	1    6300 3500
	1    0    0    -1  
$EndComp
Connection ~ 5450 2250
Wire Wire Line
	5600 2700 5100 2700
Wire Wire Line
	5600 2800 5100 2800
Wire Wire Line
	5600 2900 5100 2900
Wire Wire Line
	5600 3000 5100 3000
Text Label 5100 2700 0    50   ~ 0
TCK
Text Label 5100 2800 0    50   ~ 0
TDI
Text Label 5100 2900 0    50   ~ 0
TDO
Text Label 5100 3000 0    50   ~ 0
TRST
Text Label 5100 3100 0    50   ~ 0
NRST
Wire Wire Line
	5600 3100 5100 3100
$Comp
L Switch:SW_Push SW?
U 1 1 5EA566C9
P 7650 2200
AR Path="/5EA566C9" Ref="SW?"  Part="1" 
AR Path="/5EA55D74/5EA566C9" Ref="SW2"  Part="1" 
F 0 "SW2" V 7604 2348 50  0000 L CNN
F 1 "SW_Push" V 7695 2348 50  0000 L CNN
F 2 "Button_Switch_SMD:SW_SPST_B3S-1100" H 7650 2400 50  0001 C CNN
F 3 "" H 7650 2400 50  0001 C CNN
	1    7650 2200
	0    1    1    0   
$EndComp
$Comp
L power:GND #PWR?
U 1 1 5EA566D0
P 7500 2400
AR Path="/5EA566D0" Ref="#PWR?"  Part="1" 
AR Path="/5EA55D74/5EA566D0" Ref="#PWR0124"  Part="1" 
F 0 "#PWR0124" H 7500 2150 50  0001 C CNN
F 1 "GND" H 7505 2227 50  0000 C CNN
F 2 "" H 7500 2400 50  0001 C CNN
F 3 "" H 7500 2400 50  0001 C CNN
	1    7500 2400
	1    0    0    -1  
$EndComp
$Comp
L Device:C_Small C?
U 1 1 5EA566D6
P 7300 2200
AR Path="/5EA566D6" Ref="C?"  Part="1" 
AR Path="/5EA55D74/5EA566D6" Ref="C16"  Part="1" 
F 0 "C16" H 7392 2246 50  0000 L CNN
F 1 "0.1uF" H 7392 2155 50  0000 L CNN
F 2 "Capacitor_SMD:C_0603_1608Metric_Pad1.05x0.95mm_HandSolder" H 7300 2200 50  0001 C CNN
F 3 "~" H 7300 2200 50  0001 C CNN
	1    7300 2200
	1    0    0    -1  
$EndComp
$Comp
L Device:R R?
U 1 1 5EA566DD
P 8050 2000
AR Path="/5EA566DD" Ref="R?"  Part="1" 
AR Path="/5EA55D74/5EA566DD" Ref="R15"  Part="1" 
F 0 "R15" V 8257 2000 50  0000 C CNN
F 1 "10k" V 8166 2000 50  0000 C CNN
F 2 "Resistor_SMD:R_0603_1608Metric_Pad1.05x0.95mm_HandSolder" V 7980 2000 50  0001 C CNN
F 3 "~" H 8050 2000 50  0001 C CNN
	1    8050 2000
	0    -1   -1   0   
$EndComp
Connection ~ 7650 2000
Wire Wire Line
	7650 2000 7900 2000
Wire Wire Line
	7300 2300 7300 2400
Wire Wire Line
	7300 2400 7500 2400
Connection ~ 7500 2400
Wire Wire Line
	7500 2400 7650 2400
Wire Wire Line
	7300 2100 7300 2000
Connection ~ 7300 2000
Wire Wire Line
	7300 2000 7650 2000
Wire Wire Line
	7050 2000 7050 2800
Wire Wire Line
	7050 2800 7000 2800
Text Label 7400 1900 0    50   ~ 10
RESET
Text Label 5500 1900 0    50   ~ 10
Vin
Text Label 3850 3200 0    50   ~ 10
USB
Text Label 7100 3200 0    50   ~ 0
USART_RX
Text Label 7100 3300 0    50   ~ 0
USART_TX
Wire Wire Line
	7000 3200 7450 3200
Wire Wire Line
	7000 3300 7450 3300
Wire Wire Line
	5550 4300 5600 4300
Wire Wire Line
	5550 4450 5550 4300
Wire Wire Line
	5450 4450 5550 4450
Wire Wire Line
	5450 4400 5450 4450
Wire Wire Line
	5400 4400 5450 4400
Wire Wire Line
	5500 4400 5600 4400
Wire Wire Line
	5500 4300 5500 4400
Wire Wire Line
	5400 4300 5500 4300
Wire Wire Line
	4000 3700 3750 3700
Connection ~ 3750 3700
Wire Wire Line
	3750 3700 3550 3700
Connection ~ 4000 3400
Wire Wire Line
	4350 3400 4000 3400
Wire Wire Line
	4000 3400 3750 3400
Connection ~ 3750 3400
$Comp
L power:+5V #PWR0125
U 1 1 5EA7B88F
P 2900 3350
F 0 "#PWR0125" H 2900 3200 50  0001 C CNN
F 1 "+5V" H 2950 3550 50  0000 C CNN
F 2 "" H 2900 3350 50  0001 C CNN
F 3 "" H 2900 3350 50  0001 C CNN
	1    2900 3350
	1    0    0    -1  
$EndComp
Wire Wire Line
	2900 3400 2900 3350
Wire Wire Line
	2900 3400 3150 3400
$Comp
L power:+3.3V #PWR0126
U 1 1 5EA7F803
P 5200 2000
F 0 "#PWR0126" H 5200 1850 50  0001 C CNN
F 1 "+3.3V" H 5250 2200 50  0000 C CNN
F 2 "" H 5200 2000 50  0001 C CNN
F 3 "" H 5200 2000 50  0001 C CNN
	1    5200 2000
	1    0    0    -1  
$EndComp
$Comp
L power:+3.3V #PWR0127
U 1 1 5EA80CA9
P 8350 2000
F 0 "#PWR0127" H 8350 1850 50  0001 C CNN
F 1 "+3.3V" H 8400 2200 50  0000 C CNN
F 2 "" H 8350 2000 50  0001 C CNN
F 3 "" H 8350 2000 50  0001 C CNN
	1    8350 2000
	1    0    0    -1  
$EndComp
Wire Wire Line
	8200 2000 8350 2000
Wire Wire Line
	7050 2000 7300 2000
$Comp
L Device:R R14
U 1 1 5EFB2A63
P 7750 4300
F 0 "R14" H 7800 4400 50  0000 L CNN
F 1 "49.9" H 7800 4300 50  0000 L CNN
F 2 "Resistor_SMD:R_0603_1608Metric_Pad1.05x0.95mm_HandSolder" V 7680 4300 50  0001 C CNN
F 3 "~" H 7750 4300 50  0001 C CNN
	1    7750 4300
	1    0    0    -1  
$EndComp
$Comp
L Device:R R13
U 1 1 5EFB3EE6
P 7650 4300
F 0 "R13" H 7600 4400 50  0000 R CNN
F 1 "49.9" H 7550 4300 50  0000 C CNN
F 2 "Resistor_SMD:R_0603_1608Metric_Pad1.05x0.95mm_HandSolder" V 7580 4300 50  0001 C CNN
F 3 "~" H 7650 4300 50  0001 C CNN
	1    7650 4300
	1    0    0    -1  
$EndComp
$Comp
L Device:C_Small C?
U 1 1 5EFBB980
P 7700 4600
AR Path="/5EFBB980" Ref="C?"  Part="1" 
AR Path="/5EA55D74/5EFBB980" Ref="C17"  Part="1" 
F 0 "C17" H 7792 4646 50  0000 L CNN
F 1 "0.1uF" H 7792 4555 50  0000 L CNN
F 2 "Capacitor_SMD:C_0603_1608Metric_Pad1.05x0.95mm_HandSolder" H 7700 4600 50  0001 C CNN
F 3 "~" H 7700 4600 50  0001 C CNN
	1    7700 4600
	1    0    0    -1  
$EndComp
$Comp
L power:GND #PWR?
U 1 1 5EFBB989
P 7700 4700
AR Path="/5EFBB989" Ref="#PWR?"  Part="1" 
AR Path="/5EA55D74/5EFBB989" Ref="#PWR0128"  Part="1" 
F 0 "#PWR0128" H 7700 4450 50  0001 C CNN
F 1 "GND" H 7705 4527 50  0000 C CNN
F 2 "" H 7700 4700 50  0001 C CNN
F 3 "" H 7700 4700 50  0001 C CNN
	1    7700 4700
	1    0    0    -1  
$EndComp
Wire Wire Line
	7650 4450 7650 4500
Wire Wire Line
	7650 4500 7700 4500
Wire Wire Line
	7750 4450 7750 4500
Wire Wire Line
	7750 4500 7700 4500
Connection ~ 7700 4500
Wire Wire Line
	7000 4100 7650 4100
Wire Wire Line
	7650 4100 7650 4150
Wire Wire Line
	7000 4000 7750 4000
Wire Wire Line
	7750 4000 7750 4150
$Comp
L Device:R R17
U 1 1 5EFC5FCC
P 8150 4300
F 0 "R17" H 8200 4400 50  0000 L CNN
F 1 "49.9" H 8200 4300 50  0000 L CNN
F 2 "Resistor_SMD:R_0603_1608Metric_Pad1.05x0.95mm_HandSolder" V 8080 4300 50  0001 C CNN
F 3 "~" H 8150 4300 50  0001 C CNN
	1    8150 4300
	1    0    0    -1  
$EndComp
$Comp
L Device:R R16
U 1 1 5EFC5FD3
P 8050 4300
F 0 "R16" H 8000 4400 50  0000 R CNN
F 1 "49.9" H 7950 4300 50  0000 C CNN
F 2 "Resistor_SMD:R_0603_1608Metric_Pad1.05x0.95mm_HandSolder" V 7980 4300 50  0001 C CNN
F 3 "~" H 8050 4300 50  0001 C CNN
	1    8050 4300
	1    0    0    -1  
$EndComp
$Comp
L Device:C_Small C?
U 1 1 5EFC5FDA
P 8100 4600
AR Path="/5EFC5FDA" Ref="C?"  Part="1" 
AR Path="/5EA55D74/5EFC5FDA" Ref="C18"  Part="1" 
F 0 "C18" H 8192 4646 50  0000 L CNN
F 1 "0.1uF" H 8192 4555 50  0000 L CNN
F 2 "Capacitor_SMD:C_0603_1608Metric_Pad1.05x0.95mm_HandSolder" H 8100 4600 50  0001 C CNN
F 3 "~" H 8100 4600 50  0001 C CNN
	1    8100 4600
	1    0    0    -1  
$EndComp
$Comp
L power:GND #PWR?
U 1 1 5EFC5FE1
P 8100 4700
AR Path="/5EFC5FE1" Ref="#PWR?"  Part="1" 
AR Path="/5EA55D74/5EFC5FE1" Ref="#PWR0129"  Part="1" 
F 0 "#PWR0129" H 8100 4450 50  0001 C CNN
F 1 "GND" H 8105 4527 50  0000 C CNN
F 2 "" H 8100 4700 50  0001 C CNN
F 3 "" H 8100 4700 50  0001 C CNN
	1    8100 4700
	1    0    0    -1  
$EndComp
Wire Wire Line
	8050 4450 8050 4500
Wire Wire Line
	8050 4500 8100 4500
Wire Wire Line
	8150 4450 8150 4500
Wire Wire Line
	8150 4500 8100 4500
Connection ~ 8100 4500
Wire Wire Line
	7000 3900 8050 3900
Wire Wire Line
	8050 3900 8050 4150
Wire Wire Line
	8150 3800 7000 3800
Wire Wire Line
	8150 3800 8150 4100
$Comp
L Connector:RJ45_Amphenol_RJMG1BD3B8K1ANR J1
U 1 1 5EFD1F6E
P 9950 4100
F 0 "J1" H 9950 4850 50  0000 C CNN
F 1 "RJ45_Amphenol_RJMG1BD3B8K1ANR" H 9950 4750 50  0000 C CNN
F 2 "Connector_RJ:RJ45_Amphenol_RJMG1BD3B8K1ANR" H 9950 4800 50  0001 C CNN
F 3 "https://www.amphenolcanada.com/ProductSearch/Drawings/AC/RJMG1BD3B8K1ANR.PDF" H 9950 4900 50  0001 C CNN
	1    9950 4100
	1    0    0    -1  
$EndComp
$Comp
L Device:C_Small C?
U 1 1 5EFD5914
P 8500 4600
AR Path="/5EFD5914" Ref="C?"  Part="1" 
AR Path="/5EA55D74/5EFD5914" Ref="C19"  Part="1" 
F 0 "C19" H 8592 4646 50  0000 L CNN
F 1 "0.1uF" H 8592 4555 50  0000 L CNN
F 2 "Capacitor_SMD:C_0603_1608Metric_Pad1.05x0.95mm_HandSolder" H 8500 4600 50  0001 C CNN
F 3 "~" H 8500 4600 50  0001 C CNN
	1    8500 4600
	1    0    0    -1  
$EndComp
$Comp
L power:GND #PWR?
U 1 1 5EFD591B
P 8500 4700
AR Path="/5EFD591B" Ref="#PWR?"  Part="1" 
AR Path="/5EA55D74/5EFD591B" Ref="#PWR0130"  Part="1" 
F 0 "#PWR0130" H 8500 4450 50  0001 C CNN
F 1 "GND" H 8505 4527 50  0000 C CNN
F 2 "" H 8500 4700 50  0001 C CNN
F 3 "" H 8500 4700 50  0001 C CNN
	1    8500 4700
	1    0    0    -1  
$EndComp
Wire Wire Line
	9050 3700 8500 3700
Wire Wire Line
	8500 3700 8500 4000
Wire Wire Line
	9050 4000 8500 4000
Connection ~ 8500 4000
Wire Wire Line
	8500 4000 8500 4500
Wire Wire Line
	9050 3900 8300 3900
Wire Wire Line
	9050 4100 8150 4100
Wire Wire Line
	8150 4100 7650 4100
Connection ~ 7650 4100
$Comp
L power:GND #PWR?
U 1 1 5EFE2EDA
P 9950 4800
AR Path="/5EFE2EDA" Ref="#PWR?"  Part="1" 
AR Path="/5EA55D74/5EFE2EDA" Ref="#PWR0131"  Part="1" 
F 0 "#PWR0131" H 9950 4550 50  0001 C CNN
F 1 "GND" H 9955 4627 50  0000 C CNN
F 2 "" H 9950 4800 50  0001 C CNN
F 3 "" H 9950 4800 50  0001 C CNN
	1    9950 4800
	1    0    0    -1  
$EndComp
Connection ~ 8150 4100
Wire Wire Line
	8150 4100 8150 4150
Wire Wire Line
	7750 4000 8300 4000
Wire Wire Line
	8300 4000 8300 3900
Connection ~ 7750 4000
Wire Wire Line
	8250 3800 8250 3900
Wire Wire Line
	8250 3900 8050 3900
Wire Wire Line
	8250 3800 9050 3800
Connection ~ 8050 3900
Wire Wire Line
	8150 3600 8150 3800
Wire Wire Line
	8150 3600 9050 3600
Connection ~ 8150 3800
Wire Wire Line
	3450 3400 3550 3400
Wire Wire Line
	3550 3450 3550 3400
Connection ~ 3550 3400
Wire Wire Line
	3550 3400 3750 3400
$Comp
L Connector:USB_B_Micro J6
U 1 1 5EB99821
P 3900 4300
F 0 "J6" H 4000 4800 50  0000 C CNN
F 1 "USB_B_Micro" H 4000 4700 50  0000 C CNN
F 2 "Connector_USB:USB_Micro-B_Molex-105017-0001" H 4050 4250 50  0001 C CNN
F 3 "~" H 4050 4250 50  0001 C CNN
	1    3900 4300
	1    0    0    -1  
$EndComp
$Comp
L power:GND #PWR0193
U 1 1 5ED8A0C8
P 6300 4700
F 0 "#PWR0193" H 6300 4450 50  0001 C CNN
F 1 "GND" H 6350 4500 50  0000 C CNN
F 2 "" H 6300 4700 50  0001 C CNN
F 3 "" H 6300 4700 50  0001 C CNN
	1    6300 4700
	1    0    0    -1  
$EndComp
Wire Bus Line
	5600 5750 5750 5750
Entry Wire Line
	5750 6150 5850 6250
Entry Wire Line
	5750 6050 5850 6150
Entry Wire Line
	5750 5950 5850 6050
Entry Wire Line
	5750 5850 5850 5950
Entry Wire Line
	5750 5750 5850 5850
Text Label 5850 5850 0    50   ~ 0
JTAG0
Wire Wire Line
	5850 5850 6300 5850
Wire Wire Line
	5850 5950 6300 5950
Text Label 5850 5950 0    50   ~ 0
JTAG1
Text Label 5850 6050 0    50   ~ 0
JTAG2
Wire Wire Line
	5850 6050 6300 6050
Wire Wire Line
	5850 6150 6300 6150
Text Label 5850 6150 0    50   ~ 0
JTAG3
Wire Wire Line
	5850 6250 6300 6250
Text Label 5850 6250 0    50   ~ 0
JTAG4
Text Label 5850 6350 0    50   ~ 0
JTAG5
Entry Wire Line
	5750 6250 5850 6350
Wire Wire Line
	5850 6350 6300 6350
Text HLabel 5600 5750 0    50   BiDi ~ 0
JTAG[0..5]
Text Label 6150 5850 0    50   ~ 0
TMS
Text Label 6150 5950 0    50   ~ 0
TCK
Text Label 6150 6050 0    50   ~ 0
TDI
Text Label 6150 6150 0    50   ~ 0
TDO
Text Label 6150 6250 0    50   ~ 0
TRST
Text Label 6150 6350 0    50   ~ 0
NRST
NoConn ~ 4200 4500
NoConn ~ 5600 4100
NoConn ~ 5600 4000
NoConn ~ 5600 3900
NoConn ~ 5600 3800
NoConn ~ 5600 3600
NoConn ~ 5600 3300
NoConn ~ 5600 3400
NoConn ~ 5600 3500
NoConn ~ 6400 2300
NoConn ~ 7000 3000
NoConn ~ 7000 3500
NoConn ~ 7000 3600
NoConn ~ 7000 4300
NoConn ~ 7000 4400
NoConn ~ 10850 4500
NoConn ~ 9050 4300
NoConn ~ 9050 4400
NoConn ~ 9050 4500
NoConn ~ 9050 4600
$Comp
L S1G:S1G D2
U 1 1 5EE55B4B
P 3550 3550
F 0 "D2" H 3650 3600 50  0000 L CNN
F 1 "S1G" H 3650 3550 50  0000 L CNN
F 2 "S1G:DO-214AC" H 3550 3400 50  0001 L BNN
F 3 "S1GFSCT-ND" H 3550 3450 50  0001 L BNN
	1    3550 3550
	1    0    0    -1  
$EndComp
Wire Bus Line
	5750 5750 5750 6250
$EndSCHEMATC
