G04 #@! TF.GenerationSoftware,KiCad,Pcbnew,5.0.2+dfsg1-1*
G04 #@! TF.CreationDate,2020-06-19T09:27:11-05:00*
G04 #@! TF.ProjectId,RobotIM,526f626f-7449-44d2-9e6b-696361645f70,rev?*
G04 #@! TF.SameCoordinates,Original*
G04 #@! TF.FileFunction,Profile,NP*
%FSLAX46Y46*%
G04 Gerber Fmt 4.6, Leading zero omitted, Abs format (unit mm)*
G04 Created by KiCad (PCBNEW 5.0.2+dfsg1-1) date vie 19 jun 2020 09:27:11 -05*
%MOMM*%
%LPD*%
G01*
G04 APERTURE LIST*
%ADD10C,0.150000*%
G04 APERTURE END LIST*
D10*
X65532000Y-36576000D02*
X217932000Y-36576000D01*
X65532000Y-104648000D02*
X65532000Y-36576000D01*
X217932000Y-104648000D02*
X65532000Y-104648000D01*
X217932000Y-36576000D02*
X217932000Y-104648000D01*
M02*
