(module IC_POWERSTEP01 (layer F.Cu) (tedit 5EA7C530)
  (fp_text reference REF** (at -2.60572 -8.77579) (layer F.SilkS)
    (effects (font (size 1 1) (thickness 0.015)))
  )
  (fp_text value IC_POWERSTEP01 (at 3.3747 8.9607) (layer F.Fab)
    (effects (font (size 1 1) (thickness 0.015)))
  )
  (fp_line (start 5.5 7) (end 5.3 7) (layer F.SilkS) (width 0.127))
  (fp_line (start 5.5 6.7) (end 5.5 7) (layer F.SilkS) (width 0.127))
  (fp_line (start 5.5 3.6) (end 5.5 4) (layer F.SilkS) (width 0.127))
  (fp_line (start -5.5 -3.9) (end -5.5 -3.6) (layer F.SilkS) (width 0.127))
  (fp_line (start -5.5 3.6) (end -5.5 4) (layer F.SilkS) (width 0.127))
  (fp_line (start -5.5 7) (end -5.3 7) (layer F.SilkS) (width 0.127))
  (fp_line (start -5.5 6.7) (end -5.5 7) (layer F.SilkS) (width 0.127))
  (fp_line (start -3.3 7) (end -2.9 7) (layer F.SilkS) (width 0.127))
  (fp_line (start 2.9 7) (end 3.3 7) (layer F.SilkS) (width 0.127))
  (fp_line (start 5.5 -4) (end 5.5 -3.6) (layer F.SilkS) (width 0.127))
  (fp_line (start 5.5 -7) (end 5.5 -6.7) (layer F.SilkS) (width 0.127))
  (fp_line (start 5.3 -7) (end 5.5 -7) (layer F.SilkS) (width 0.127))
  (fp_line (start 2.9 -7) (end 3.3 -7) (layer F.SilkS) (width 0.127))
  (fp_line (start -3.3 -7) (end -2.9 -7) (layer F.SilkS) (width 0.127))
  (fp_line (start -5.5 -7) (end -5.5 -6.7) (layer F.SilkS) (width 0.127))
  (fp_line (start -5.3 -7) (end -5.5 -7) (layer F.SilkS) (width 0.127))
  (fp_poly (pts (xy -5.94 -6.55) (xy -5.26 -6.55) (xy -5.26 -4.14) (xy -5.94 -4.14)) (layer F.Mask) (width 0.01))
  (fp_poly (pts (xy -5.27 -6.78) (xy -2.92 -6.78) (xy -2.92 -3.75) (xy -5.27 -3.75)) (layer F.Mask) (width 0.01))
  (fp_poly (pts (xy -5.12 -7.49) (xy -3.48 -7.49) (xy -3.48 -6.68) (xy -5.12 -6.68)) (layer F.Mask) (width 0.01))
  (fp_poly (pts (xy -5.94 4.14) (xy -5.26 4.14) (xy -5.26 6.55) (xy -5.94 6.55)) (layer F.Mask) (width 0.01))
  (fp_poly (pts (xy -5.27 3.75) (xy -2.92 3.75) (xy -2.92 6.78) (xy -5.27 6.78)) (layer F.Mask) (width 0.01))
  (fp_poly (pts (xy -5.12 6.68) (xy -3.48 6.68) (xy -3.48 7.49) (xy -5.12 7.49)) (layer F.Mask) (width 0.01))
  (fp_poly (pts (xy 5.26 4.14) (xy 5.94 4.14) (xy 5.94 6.55) (xy 5.26 6.55)) (layer F.Mask) (width 0.01))
  (fp_poly (pts (xy 2.92 3.75) (xy 5.27 3.75) (xy 5.27 6.78) (xy 2.92 6.78)) (layer F.Mask) (width 0.01))
  (fp_poly (pts (xy 3.48 6.68) (xy 5.12 6.68) (xy 5.12 7.49) (xy 3.48 7.49)) (layer F.Mask) (width 0.01))
  (fp_poly (pts (xy 5.26 -6.55) (xy 5.94 -6.55) (xy 5.94 -4.14) (xy 5.26 -4.14)) (layer F.Mask) (width 0.01))
  (fp_poly (pts (xy 2.92 -6.78) (xy 5.27 -6.78) (xy 5.27 -3.75) (xy 2.92 -3.75)) (layer F.Mask) (width 0.01))
  (fp_poly (pts (xy 3.48 -7.49) (xy 5.12 -7.49) (xy 5.12 -6.68) (xy 3.48 -6.68)) (layer F.Mask) (width 0.01))
  (fp_line (start -6.1 -7.7) (end -5.05 -7.7) (layer F.CrtYd) (width 0.05))
  (fp_line (start -6.1 -6.2) (end -6.1 -7.7) (layer F.CrtYd) (width 0.05))
  (fp_line (start -6.1 7.7) (end -6.1 -6.2) (layer F.CrtYd) (width 0.05))
  (fp_line (start 4.3 7.7) (end -6.1 7.7) (layer F.CrtYd) (width 0.05))
  (fp_line (start 6.1 7.7) (end 4.3 7.7) (layer F.CrtYd) (width 0.05))
  (fp_line (start 6.1 6.45) (end 6.1 7.7) (layer F.CrtYd) (width 0.05))
  (fp_line (start 6.1 -7.7) (end 6.1 6.45) (layer F.CrtYd) (width 0.05))
  (fp_line (start -5.05 -7.7) (end 6.1 -7.7) (layer F.CrtYd) (width 0.05))
  (fp_poly (pts (xy 0.5975 6.9275) (xy 1.4225 6.9275) (xy 1.4225 7.1175) (xy 0.5975 7.1175)) (layer F.Paste) (width 0.01))
  (fp_poly (pts (xy 1.0075 6.9275) (xy 1.8325 6.9275) (xy 1.8325 7.1175) (xy 1.0075 7.1175)) (layer F.Paste) (width 0.01))
  (fp_poly (pts (xy 1.4075 6.9275) (xy 2.2325 6.9275) (xy 2.2325 7.1175) (xy 1.4075 7.1175)) (layer F.Paste) (width 0.01))
  (fp_poly (pts (xy 3.2475 6.9375) (xy 4.0725 6.9375) (xy 4.0725 7.1275) (xy 3.2475 7.1275)) (layer F.Paste) (width 0.01))
  (fp_poly (pts (xy 3.6575 6.9375) (xy 4.4825 6.9375) (xy 4.4825 7.1275) (xy 3.6575 7.1275)) (layer F.Paste) (width 0.01))
  (fp_poly (pts (xy 4.0475 6.9375) (xy 4.8725 6.9375) (xy 4.8725 7.1275) (xy 4.0475 7.1275)) (layer F.Paste) (width 0.01))
  (fp_poly (pts (xy 4.5175 6.9375) (xy 5.3425 6.9375) (xy 5.3425 7.1275) (xy 4.5175 7.1275)) (layer F.Paste) (width 0.01))
  (fp_poly (pts (xy 5.18 6.225) (xy 5.865 6.225) (xy 5.865 6.415) (xy 5.18 6.415)) (layer F.Paste) (width 0.01))
  (fp_poly (pts (xy 5.18 5.825) (xy 5.865 5.825) (xy 5.865 6.015) (xy 5.18 6.015)) (layer F.Paste) (width 0.01))
  (fp_poly (pts (xy 5.18 5.425) (xy 5.865 5.425) (xy 5.865 5.615) (xy 5.18 5.615)) (layer F.Paste) (width 0.01))
  (fp_poly (pts (xy 5.18 5.025) (xy 5.865 5.025) (xy 5.865 5.215) (xy 5.18 5.215)) (layer F.Paste) (width 0.01))
  (fp_poly (pts (xy 5.18 4.625) (xy 5.865 4.625) (xy 5.865 4.815) (xy 5.18 4.815)) (layer F.Paste) (width 0.01))
  (fp_poly (pts (xy 5.18 4.225) (xy 5.865 4.225) (xy 5.865 4.415) (xy 5.18 4.415)) (layer F.Paste) (width 0.01))
  (fp_poly (pts (xy 0.5975 -7.1175) (xy 1.4225 -7.1175) (xy 1.4225 -6.9275) (xy 0.5975 -6.9275)) (layer F.Paste) (width 0.01))
  (fp_poly (pts (xy 1.0075 -7.1175) (xy 1.8325 -7.1175) (xy 1.8325 -6.9275) (xy 1.0075 -6.9275)) (layer F.Paste) (width 0.01))
  (fp_poly (pts (xy 1.4075 -7.1175) (xy 2.2325 -7.1175) (xy 2.2325 -6.9275) (xy 1.4075 -6.9275)) (layer F.Paste) (width 0.01))
  (fp_poly (pts (xy 3.2475 -7.1275) (xy 4.0725 -7.1275) (xy 4.0725 -6.9375) (xy 3.2475 -6.9375)) (layer F.Paste) (width 0.01))
  (fp_poly (pts (xy 3.6575 -7.1275) (xy 4.4825 -7.1275) (xy 4.4825 -6.9375) (xy 3.6575 -6.9375)) (layer F.Paste) (width 0.01))
  (fp_poly (pts (xy 4.0475 -7.1275) (xy 4.8725 -7.1275) (xy 4.8725 -6.9375) (xy 4.0475 -6.9375)) (layer F.Paste) (width 0.01))
  (fp_poly (pts (xy 4.5175 -7.1275) (xy 5.3425 -7.1275) (xy 5.3425 -6.9375) (xy 4.5175 -6.9375)) (layer F.Paste) (width 0.01))
  (fp_poly (pts (xy 5.18 -6.415) (xy 5.865 -6.415) (xy 5.865 -6.225) (xy 5.18 -6.225)) (layer F.Paste) (width 0.01))
  (fp_poly (pts (xy 5.18 -6.015) (xy 5.865 -6.015) (xy 5.865 -5.825) (xy 5.18 -5.825)) (layer F.Paste) (width 0.01))
  (fp_poly (pts (xy 5.18 -5.615) (xy 5.865 -5.615) (xy 5.865 -5.425) (xy 5.18 -5.425)) (layer F.Paste) (width 0.01))
  (fp_poly (pts (xy 5.18 -5.215) (xy 5.865 -5.215) (xy 5.865 -5.025) (xy 5.18 -5.025)) (layer F.Paste) (width 0.01))
  (fp_poly (pts (xy 5.18 -4.815) (xy 5.865 -4.815) (xy 5.865 -4.625) (xy 5.18 -4.625)) (layer F.Paste) (width 0.01))
  (fp_poly (pts (xy 5.18 -4.415) (xy 5.865 -4.415) (xy 5.865 -4.225) (xy 5.18 -4.225)) (layer F.Paste) (width 0.01))
  (fp_poly (pts (xy -1.4225 -7.1175) (xy -0.5975 -7.1175) (xy -0.5975 -6.9275) (xy -1.4225 -6.9275)) (layer F.Paste) (width 0.01))
  (fp_poly (pts (xy -1.8325 -7.1175) (xy -1.0075 -7.1175) (xy -1.0075 -6.9275) (xy -1.8325 -6.9275)) (layer F.Paste) (width 0.01))
  (fp_poly (pts (xy -2.2325 -7.1175) (xy -1.4075 -7.1175) (xy -1.4075 -6.9275) (xy -2.2325 -6.9275)) (layer F.Paste) (width 0.01))
  (fp_poly (pts (xy -4.0725 -7.1275) (xy -3.2475 -7.1275) (xy -3.2475 -6.9375) (xy -4.0725 -6.9375)) (layer F.Paste) (width 0.01))
  (fp_poly (pts (xy -4.4825 -7.1275) (xy -3.6575 -7.1275) (xy -3.6575 -6.9375) (xy -4.4825 -6.9375)) (layer F.Paste) (width 0.01))
  (fp_poly (pts (xy -4.8725 -7.1275) (xy -4.0475 -7.1275) (xy -4.0475 -6.9375) (xy -4.8725 -6.9375)) (layer F.Paste) (width 0.01))
  (fp_poly (pts (xy -5.3425 -7.1275) (xy -4.5175 -7.1275) (xy -4.5175 -6.9375) (xy -5.3425 -6.9375)) (layer F.Paste) (width 0.01))
  (fp_poly (pts (xy -5.865 -6.415) (xy -5.18 -6.415) (xy -5.18 -6.225) (xy -5.865 -6.225)) (layer F.Paste) (width 0.01))
  (fp_poly (pts (xy -5.865 -6.015) (xy -5.18 -6.015) (xy -5.18 -5.825) (xy -5.865 -5.825)) (layer F.Paste) (width 0.01))
  (fp_poly (pts (xy -5.865 -5.615) (xy -5.18 -5.615) (xy -5.18 -5.425) (xy -5.865 -5.425)) (layer F.Paste) (width 0.01))
  (fp_poly (pts (xy -5.865 -5.215) (xy -5.18 -5.215) (xy -5.18 -5.025) (xy -5.865 -5.025)) (layer F.Paste) (width 0.01))
  (fp_poly (pts (xy -5.865 -4.815) (xy -5.18 -4.815) (xy -5.18 -4.625) (xy -5.865 -4.625)) (layer F.Paste) (width 0.01))
  (fp_poly (pts (xy -5.865 -4.415) (xy -5.18 -4.415) (xy -5.18 -4.225) (xy -5.865 -4.225)) (layer F.Paste) (width 0.01))
  (fp_poly (pts (xy 4.205 5.38) (xy 4.935 5.38) (xy 4.935 6.47) (xy 4.205 6.47)) (layer F.Paste) (width 0.01))
  (fp_poly (pts (xy 3.235 4.05) (xy 3.965 4.05) (xy 3.965 5.14) (xy 3.235 5.14)) (layer F.Paste) (width 0.01))
  (fp_poly (pts (xy 3.235 5.38) (xy 3.965 5.38) (xy 3.965 6.47) (xy 3.235 6.47)) (layer F.Paste) (width 0.01))
  (fp_poly (pts (xy 4.205 4.05) (xy 4.935 4.05) (xy 4.935 5.14) (xy 4.205 5.14)) (layer F.Paste) (width 0.01))
  (fp_poly (pts (xy -3.965 5.38) (xy -3.235 5.38) (xy -3.235 6.47) (xy -3.965 6.47)) (layer F.Paste) (width 0.01))
  (fp_poly (pts (xy -4.935 4.05) (xy -4.205 4.05) (xy -4.205 5.14) (xy -4.935 5.14)) (layer F.Paste) (width 0.01))
  (fp_poly (pts (xy -4.935 5.38) (xy -4.205 5.38) (xy -4.205 6.47) (xy -4.935 6.47)) (layer F.Paste) (width 0.01))
  (fp_poly (pts (xy -3.965 4.05) (xy -3.235 4.05) (xy -3.235 5.14) (xy -3.965 5.14)) (layer F.Paste) (width 0.01))
  (fp_poly (pts (xy 4.205 -5.14) (xy 4.935 -5.14) (xy 4.935 -4.05) (xy 4.205 -4.05)) (layer F.Paste) (width 0.01))
  (fp_poly (pts (xy 3.235 -6.47) (xy 3.965 -6.47) (xy 3.965 -5.38) (xy 3.235 -5.38)) (layer F.Paste) (width 0.01))
  (fp_poly (pts (xy 3.235 -5.14) (xy 3.965 -5.14) (xy 3.965 -4.05) (xy 3.235 -4.05)) (layer F.Paste) (width 0.01))
  (fp_poly (pts (xy 4.205 -6.47) (xy 4.935 -6.47) (xy 4.935 -5.38) (xy 4.205 -5.38)) (layer F.Paste) (width 0.01))
  (fp_poly (pts (xy -3.965 -5.14) (xy -3.235 -5.14) (xy -3.235 -4.05) (xy -3.965 -4.05)) (layer F.Paste) (width 0.01))
  (fp_poly (pts (xy -4.935 -6.47) (xy -4.205 -6.47) (xy -4.205 -5.38) (xy -4.935 -5.38)) (layer F.Paste) (width 0.01))
  (fp_poly (pts (xy -4.935 -5.14) (xy -4.205 -5.14) (xy -4.205 -4.05) (xy -4.935 -4.05)) (layer F.Paste) (width 0.01))
  (fp_poly (pts (xy -3.965 -6.47) (xy -3.235 -6.47) (xy -3.235 -5.38) (xy -3.965 -5.38)) (layer F.Paste) (width 0.01))
  (fp_poly (pts (xy -1.4225 6.9275) (xy -0.5975 6.9275) (xy -0.5975 7.1175) (xy -1.4225 7.1175)) (layer F.Paste) (width 0.01))
  (fp_poly (pts (xy -1.8325 6.9275) (xy -1.0075 6.9275) (xy -1.0075 7.1175) (xy -1.8325 7.1175)) (layer F.Paste) (width 0.01))
  (fp_poly (pts (xy -2.2325 6.9275) (xy -1.4075 6.9275) (xy -1.4075 7.1175) (xy -2.2325 7.1175)) (layer F.Paste) (width 0.01))
  (fp_poly (pts (xy -4.0725 6.9375) (xy -3.2475 6.9375) (xy -3.2475 7.1275) (xy -4.0725 7.1275)) (layer F.Paste) (width 0.01))
  (fp_poly (pts (xy -4.4825 6.9375) (xy -3.6575 6.9375) (xy -3.6575 7.1275) (xy -4.4825 7.1275)) (layer F.Paste) (width 0.01))
  (fp_poly (pts (xy -4.8725 6.9375) (xy -4.0475 6.9375) (xy -4.0475 7.1275) (xy -4.8725 7.1275)) (layer F.Paste) (width 0.01))
  (fp_poly (pts (xy -5.3425 6.9375) (xy -4.5175 6.9375) (xy -4.5175 7.1275) (xy -5.3425 7.1275)) (layer F.Paste) (width 0.01))
  (fp_poly (pts (xy -5.865 6.225) (xy -5.18 6.225) (xy -5.18 6.415) (xy -5.865 6.415)) (layer F.Paste) (width 0.01))
  (fp_poly (pts (xy -5.865 5.825) (xy -5.18 5.825) (xy -5.18 6.015) (xy -5.865 6.015)) (layer F.Paste) (width 0.01))
  (fp_poly (pts (xy -5.865 5.425) (xy -5.18 5.425) (xy -5.18 5.615) (xy -5.865 5.615)) (layer F.Paste) (width 0.01))
  (fp_poly (pts (xy -5.865 5.025) (xy -5.18 5.025) (xy -5.18 5.215) (xy -5.865 5.215)) (layer F.Paste) (width 0.01))
  (fp_poly (pts (xy -5.865 4.625) (xy -5.18 4.625) (xy -5.18 4.815) (xy -5.865 4.815)) (layer F.Paste) (width 0.01))
  (fp_poly (pts (xy -5.865 4.225) (xy -5.18 4.225) (xy -5.18 4.415) (xy -5.865 4.415)) (layer F.Paste) (width 0.01))
  (fp_poly (pts (xy -2.54 0.38) (xy -1.18 0.38) (xy -1.18 2.02) (xy -2.54 2.02)) (layer F.Paste) (width 0.01))
  (fp_poly (pts (xy 1.18 0.38) (xy 2.54 0.38) (xy 2.54 2.02) (xy 1.18 2.02)) (layer F.Paste) (width 0.01))
  (fp_poly (pts (xy -0.68 0.38) (xy 0.68 0.38) (xy 0.68 2.02) (xy -0.68 2.02)) (layer F.Paste) (width 0.01))
  (fp_poly (pts (xy 1.18 -2.02) (xy 2.54 -2.02) (xy 2.54 -0.38) (xy 1.18 -0.38)) (layer F.Paste) (width 0.01))
  (fp_poly (pts (xy -2.54 -2.02) (xy -1.18 -2.02) (xy -1.18 -0.38) (xy -2.54 -0.38)) (layer F.Paste) (width 0.01))
  (fp_poly (pts (xy -0.68 -2.02) (xy 0.68 -2.02) (xy 0.68 -0.38) (xy -0.68 -0.38)) (layer F.Paste) (width 0.01))
  (fp_poly (pts (xy -1.863 6.327) (xy -0.977 6.327) (xy -0.977 7.253) (xy -1.863 7.253)) (layer F.Paste) (width 0.01))
  (fp_poly (pts (xy 0.977 6.327) (xy 1.863 6.327) (xy 1.863 7.253) (xy 0.977 7.253)) (layer F.Paste) (width 0.01))
  (fp_poly (pts (xy -1.863 -7.253) (xy -0.977 -7.253) (xy -0.977 -6.327) (xy -1.863 -6.327)) (layer F.Paste) (width 0.01))
  (fp_poly (pts (xy 0.977 -7.253) (xy 1.863 -7.253) (xy 1.863 -6.327) (xy 0.977 -6.327)) (layer F.Paste) (width 0.01))
  (fp_poly (pts (xy 1.51 4.4) (xy 2.32 4.4) (xy 2.32 5.56) (xy 1.51 5.56)) (layer F.Paste) (width 0.01))
  (fp_poly (pts (xy 0.44 2.98) (xy 1.25 2.98) (xy 1.25 4.14) (xy 0.44 4.14)) (layer F.Paste) (width 0.01))
  (fp_poly (pts (xy 1.51 2.98) (xy 2.32 2.98) (xy 2.32 4.14) (xy 1.51 4.14)) (layer F.Paste) (width 0.01))
  (fp_poly (pts (xy 0.44 4.4) (xy 1.25 4.4) (xy 1.25 5.56) (xy 0.44 5.56)) (layer F.Paste) (width 0.01))
  (fp_poly (pts (xy -1.25 4.4) (xy -0.44 4.4) (xy -0.44 5.56) (xy -1.25 5.56)) (layer F.Paste) (width 0.01))
  (fp_poly (pts (xy -2.32 2.98) (xy -1.51 2.98) (xy -1.51 4.14) (xy -2.32 4.14)) (layer F.Paste) (width 0.01))
  (fp_poly (pts (xy -1.25 2.98) (xy -0.44 2.98) (xy -0.44 4.14) (xy -1.25 4.14)) (layer F.Paste) (width 0.01))
  (fp_poly (pts (xy -2.32 4.4) (xy -1.51 4.4) (xy -1.51 5.56) (xy -2.32 5.56)) (layer F.Paste) (width 0.01))
  (fp_poly (pts (xy -2.32 -5.56) (xy -1.51 -5.56) (xy -1.51 -4.4) (xy -2.32 -4.4)) (layer F.Paste) (width 0.01))
  (fp_poly (pts (xy -1.25 -4.14) (xy -0.44 -4.14) (xy -0.44 -2.98) (xy -1.25 -2.98)) (layer F.Paste) (width 0.01))
  (fp_poly (pts (xy -2.32 -4.14) (xy -1.51 -4.14) (xy -1.51 -2.98) (xy -2.32 -2.98)) (layer F.Paste) (width 0.01))
  (fp_poly (pts (xy -1.25 -5.56) (xy -0.44 -5.56) (xy -0.44 -4.4) (xy -1.25 -4.4)) (layer F.Paste) (width 0.01))
  (fp_poly (pts (xy 0.44 -5.56) (xy 1.25 -5.56) (xy 1.25 -4.4) (xy 0.44 -4.4)) (layer F.Paste) (width 0.01))
  (fp_poly (pts (xy 1.51 -4.14) (xy 2.32 -4.14) (xy 2.32 -2.98) (xy 1.51 -2.98)) (layer F.Paste) (width 0.01))
  (fp_poly (pts (xy 0.44 -4.14) (xy 1.25 -4.14) (xy 1.25 -2.98) (xy 0.44 -2.98)) (layer F.Paste) (width 0.01))
  (fp_poly (pts (xy 1.51 -5.56) (xy 2.32 -5.56) (xy 2.32 -4.4) (xy 1.51 -4.4)) (layer F.Paste) (width 0.01))
  (fp_poly (pts (xy -2.99 3.81) (xy -2.99 6.71) (xy -3.54 6.71) (xy -3.54 7.44)
    (xy -5.07 7.44) (xy -5.07 6.72) (xy -5.19 6.72) (xy -5.19 6.45)
    (xy -5.86 6.45) (xy -5.86 4.2) (xy -5.18 4.2) (xy -5.18 3.81)) (layer F.Cu) (width 0.0001))
  (fp_poly (pts (xy 2.99 -3.81) (xy 2.99 -6.71) (xy 3.54 -6.71) (xy 3.54 -7.44)
    (xy 5.07 -7.44) (xy 5.07 -6.72) (xy 5.19 -6.72) (xy 5.19 -6.45)
    (xy 5.86 -6.45) (xy 5.86 -4.2) (xy 5.18 -4.2) (xy 5.18 -3.81)) (layer F.Cu) (width 0.0001))
  (fp_poly (pts (xy 2.99 3.81) (xy 2.99 6.71) (xy 3.54 6.71) (xy 3.54 7.44)
    (xy 5.07 7.44) (xy 5.07 6.72) (xy 5.19 6.72) (xy 5.19 6.45)
    (xy 5.86 6.45) (xy 5.86 4.2) (xy 5.18 4.2) (xy 5.18 3.81)) (layer F.Cu) (width 0.0001))
  (fp_poly (pts (xy -2.99 -3.81) (xy -2.99 -6.71) (xy -3.54 -6.71) (xy -3.54 -7.44)
    (xy -5.07 -7.44) (xy -5.07 -6.72) (xy -5.19 -6.72) (xy -5.19 -6.45)
    (xy -5.86 -6.45) (xy -5.86 -4.2) (xy -5.18 -4.2) (xy -5.18 -3.81)) (layer F.Cu) (width 0.0001))
  (fp_circle (center -6.4438 -6.22) (end -6.2938 -6.22) (layer F.Fab) (width 0.2))
  (fp_line (start 5.5 -7) (end 5.5 7) (layer F.Fab) (width 0.127))
  (fp_line (start -5.5 -7) (end -5.5 7) (layer F.Fab) (width 0.127))
  (fp_line (start -5.5 7) (end 5.5 7) (layer F.Fab) (width 0.127))
  (fp_line (start -5.5 -7) (end 5.5 -7) (layer F.Fab) (width 0.127))
  (fp_circle (center -6.4438 -6.22) (end -6.2938 -6.22) (layer F.SilkS) (width 0.2))
  (pad 66 smd rect (at 4.55 -4.6) (size 0.5 0.5) (layers F.Cu))
  (pad 43 smd rect (at 4.55 5.9) (size 0.5 0.5) (layers F.Cu))
  (pad 23 smd rect (at -3.6 4.6) (size 0.5 0.5) (layers F.Cu))
  (pad 1 smd rect (at -3.6 -4.65) (size 0.5 0.5) (layers F.Cu))
  (pad 76 smd rect (at 2.51 -6.935) (size 0.19 0.86) (layers F.Cu F.Paste F.Mask))
  (pad 80 smd rect (at 0.32 -6.935) (size 0.19 0.86) (layers F.Cu F.Paste F.Mask))
  (pad 81 smd rect (at -0.32 -6.935) (size 0.19 0.86) (layers F.Cu F.Paste F.Mask))
  (pad 85 smd rect (at -2.51 -6.935) (size 0.19 0.86) (layers F.Cu F.Paste F.Mask))
  (pad 42 smd rect (at 2.51 6.935) (size 0.19 0.86) (layers F.Cu F.Paste F.Mask))
  (pad 38 smd rect (at 0.32 6.935) (size 0.19 0.86) (layers F.Cu F.Paste F.Mask))
  (pad 37 smd rect (at -0.32 6.935) (size 0.19 0.86) (layers F.Cu F.Paste F.Mask))
  (pad 33 smd rect (at -2.51 6.935) (size 0.19 0.86) (layers F.Cu F.Paste F.Mask))
  (pad 59 smd rect (at 5.435 0) (size 0.86 0.19) (layers F.Cu F.Paste F.Mask))
  (pad 65 smd rect (at 5.435 -3.27) (size 0.86 0.19) (layers F.Cu F.Paste F.Mask))
  (pad 64 smd rect (at 5.435 -2.65) (size 0.86 0.19) (layers F.Cu F.Paste F.Mask))
  (pad 63 smd rect (at 5.435 -2.25) (size 0.86 0.19) (layers F.Cu F.Paste F.Mask))
  (pad 62 smd rect (at 5.435 -1.85) (size 0.86 0.19) (layers F.Cu F.Paste F.Mask))
  (pad 61 smd rect (at 5.435 -1.13) (size 0.86 0.19) (layers F.Cu F.Paste F.Mask))
  (pad 60 smd rect (at 5.435 -0.4) (size 0.86 0.19) (layers F.Cu F.Paste F.Mask))
  (pad 53 smd rect (at 5.435 3.27) (size 0.86 0.19) (layers F.Cu F.Paste F.Mask))
  (pad 54 smd rect (at 5.435 2.65) (size 0.86 0.19) (layers F.Cu F.Paste F.Mask))
  (pad 55 smd rect (at 5.435 1.93) (size 0.86 0.19) (layers F.Cu F.Paste F.Mask))
  (pad 56 smd rect (at 5.435 1.53) (size 0.86 0.19) (layers F.Cu F.Paste F.Mask))
  (pad 57 smd rect (at 5.435 0.8) (size 0.86 0.19) (layers F.Cu F.Paste F.Mask))
  (pad 58 smd rect (at 5.435 0.4) (size 0.86 0.19) (layers F.Cu F.Paste F.Mask))
  (pad 7 smd rect (at -5.435 -3.27) (size 0.86 0.19) (layers F.Cu F.Paste F.Mask))
  (pad 8 smd rect (at -5.435 -2.65) (size 0.86 0.19) (layers F.Cu F.Paste F.Mask))
  (pad 9 smd rect (at -5.435 -2.2) (size 0.86 0.19) (layers F.Cu F.Paste F.Mask))
  (pad 10 smd rect (at -5.435 -1.8) (size 0.86 0.19) (layers F.Cu F.Paste F.Mask))
  (pad 11 smd rect (at -5.435 -1.4) (size 0.86 0.19) (layers F.Cu F.Paste F.Mask))
  (pad 12 smd rect (at -5.435 -1) (size 0.86 0.19) (layers F.Cu F.Paste F.Mask))
  (pad 13 smd rect (at -5.435 -0.6) (size 0.86 0.19) (layers F.Cu F.Paste F.Mask))
  (pad 14 smd rect (at -5.435 -0.2) (size 0.86 0.19) (layers F.Cu F.Paste F.Mask))
  (pad 22 smd rect (at -5.435 3.27) (size 0.86 0.19) (layers F.Cu F.Paste F.Mask))
  (pad 21 smd rect (at -5.435 2.65) (size 0.86 0.19) (layers F.Cu F.Paste F.Mask))
  (pad 20 smd rect (at -5.435 2.2) (size 0.86 0.19) (layers F.Cu F.Paste F.Mask))
  (pad 19 smd rect (at -5.435 1.8) (size 0.86 0.19) (layers F.Cu F.Paste F.Mask))
  (pad 18 smd rect (at -5.435 1.4) (size 0.86 0.19) (layers F.Cu F.Paste F.Mask))
  (pad 17 smd rect (at -5.435 1) (size 0.86 0.19) (layers F.Cu F.Paste F.Mask))
  (pad 16 smd rect (at -5.435 0.6) (size 0.86 0.19) (layers F.Cu F.Paste F.Mask))
  (pad 15 smd rect (at -5.435 0.2) (size 0.86 0.19) (layers F.Cu F.Paste F.Mask))
  (pad 39 smd rect (at 1.42 6.79) (size 1.26 1.3) (layers F.Cu F.Mask))
  (pad 34 smd rect (at -1.42 6.79) (size 1.26 1.3) (layers F.Cu F.Mask))
  (pad 77 smd rect (at 1.42 -6.79) (size 1.26 1.3) (layers F.Cu F.Mask))
  (pad 82 smd rect (at -1.42 -6.79) (size 1.26 1.3) (layers F.Cu F.Mask))
  (pad EPAD4 smd rect (at 1.38 4.26) (size 2.4 3.1) (layers F.Cu F.Mask))
  (pad EPAD3 smd rect (at -1.38 4.26) (size 2.4 3.1) (layers F.Cu F.Mask))
  (pad EPAD7 smd rect (at 1.38 -4.26) (size 2.4 3.1) (layers F.Cu F.Mask))
  (pad EPAD8 smd rect (at -1.38 -4.27) (size 2.4 3.1) (layers F.Cu F.Mask))
  (pad EPAD9 smd rect (at 0.04 0) (size 5.6 4.8) (layers F.Cu F.Mask))
)
