%!PS-Adobe-3.0
%%Creator: PCBNEW
%%CreationDate: Tue Jun 30 23:46:52 2020
%%Title: /home/nayan/Embebidos/master/Esquematicos/Gerber/RobotIM-NPTH-drl_map.ps
%%Pages: 1
%%PageOrder: Ascend
%%BoundingBox: 0 0 596 842
%%DocumentMedia: A4 595 842 0 () ()
%%Orientation: Landscape
%%EndComments
%%BeginProlog
/line { newpath moveto lineto stroke } bind def
/cir0 { newpath 0 360 arc stroke } bind def
/cir1 { newpath 0 360 arc gsave fill grestore stroke } bind def
/cir2 { newpath 0 360 arc gsave fill grestore stroke } bind def
/arc0 { newpath arc stroke } bind def
/arc1 { newpath 4 index 4 index moveto arc closepath gsave fill
    grestore stroke } bind def
/arc2 { newpath 4 index 4 index moveto arc closepath gsave fill
    grestore stroke } bind def
/poly0 { stroke } bind def
/poly1 { closepath gsave fill grestore stroke } bind def
/poly2 { closepath gsave fill grestore stroke } bind def
/rect0 { rectstroke } bind def
/rect1 { rectfill } bind def
/rect2 { rectfill } bind def
/linemode0 { 0 setlinecap 0 setlinejoin 0 setlinewidth } bind def
/linemode1 { 1 setlinecap 1 setlinejoin } bind def
/dashedline { [200] 100 setdash } bind def
/solidline { [] 0 setdash } bind def
/phantomshow { moveto
    /KicadFont findfont 0.000001 scalefont setfont
    show } bind def
/textshow { gsave
    findfont exch scalefont setfont concat 1 scale 0 0 moveto show
    } bind def
/reencodefont {
  findfont dup length dict begin
  { 1 index /FID ne
    { def }
    { pop pop } ifelse
  } forall
  /Encoding ISOLatin1Encoding def
  currentdict
  end } bind def
/KicadFont /Helvetica reencodefont definefont pop
/KicadFont-Bold /Helvetica-Bold reencodefont definefont pop
/KicadFont-Oblique /Helvetica-Oblique reencodefont definefont pop
/KicadFont-BoldOblique /Helvetica-BoldOblique reencodefont definefont pop
%%EndProlog
%%Page: 1 1
%%BeginPageSetup
gsave
0.0072 0.0072 scale
linemode1
82680 0 translate 90 rotate
77.6907 setlinewidth
%%EndPageSetup
0 0 0 setrgbcolor
91.7607 setlinewidth
newpath
11850.6 78697.1 moveto
105079 78697.1 lineto
stroke
0 0 0 setrgbcolor
newpath
11850.6 37054.9 moveto
11850.6 78697.1 lineto
stroke
0 0 0 setrgbcolor
newpath
105079 37054.9 moveto
11850.6 37054.9 lineto
stroke
0 0 0 setrgbcolor
newpath
105079 78697.1 moveto
105079 37054.9 lineto
stroke
78.7398 setlinewidth
newpath
100056 76883.9 moveto
101402 75538.1 lineto
stroke
newpath
101402 76883.9 moveto
100056 75538.1 lineto
stroke
newpath
14596.1 74087.1 moveto
15941.9 72741.2 lineto
stroke
newpath
15941.9 74087.1 moveto
14596.1 72741.2 lineto
stroke
newpath
100677 43321.5 moveto
102023 41975.7 lineto
stroke
newpath
102023 43321.5 moveto
100677 41975.7 lineto
stroke
24837.7 71570.9 994.074 cir0
31829.9 71570.9 994.074 cir0
118.11 setlinewidth
0 0 0 setrgbcolor
0 0 0 setrgbcolor
newpath
12932.4 35175.5 moveto
12932.4 36356.6 lineto
13213.6 36356.6 lineto
13382.3 36300.3 lineto
13494.8 36187.9 lineto
13551 36075.4 lineto
13607.3 35850.4 lineto
13607.3 35681.7 lineto
13551 35456.7 lineto
13494.8 35344.2 lineto
13382.3 35231.7 lineto
13213.6 35175.5 lineto
12932.4 35175.5 lineto
stroke
newpath
14113.5 35175.5 moveto
14113.5 35962.9 lineto
stroke
newpath
14113.5 35737.9 moveto
14169.7 35850.4 lineto
14226 35906.6 lineto
14338.4 35962.9 lineto
14450.9 35962.9 lineto
stroke
newpath
14844.6 35175.5 moveto
14844.6 35962.9 lineto
stroke
newpath
14844.6 36356.6 moveto
14788.4 36300.3 lineto
14844.6 36244.1 lineto
14900.9 36300.3 lineto
14844.6 36356.6 lineto
14844.6 36244.1 lineto
stroke
newpath
15575.8 35175.5 moveto
15463.3 35231.7 lineto
15407.1 35344.2 lineto
15407.1 36356.6 lineto
stroke
newpath
16194.5 35175.5 moveto
16082 35231.7 lineto
16025.7 35344.2 lineto
16025.7 36356.6 lineto
stroke
newpath
17544.3 35175.5 moveto
17544.3 36356.6 lineto
17938 35512.9 lineto
18331.7 36356.6 lineto
18331.7 35175.5 lineto
stroke
newpath
19400.3 35175.5 moveto
19400.3 35794.2 lineto
19344.1 35906.6 lineto
19231.6 35962.9 lineto
19006.6 35962.9 lineto
18894.1 35906.6 lineto
stroke
newpath
19400.3 35231.7 moveto
19287.8 35175.5 lineto
19006.6 35175.5 lineto
18894.1 35231.7 lineto
18837.9 35344.2 lineto
18837.9 35456.7 lineto
18894.1 35569.2 lineto
19006.6 35625.4 lineto
19287.8 35625.4 lineto
19400.3 35681.7 lineto
stroke
newpath
19962.7 35962.9 moveto
19962.7 34781.8 lineto
stroke
newpath
19962.7 35906.6 moveto
20075.2 35962.9 lineto
20300.2 35962.9 lineto
20412.7 35906.6 lineto
20468.9 35850.4 lineto
20525.2 35737.9 lineto
20525.2 35400.5 lineto
20468.9 35288 lineto
20412.7 35231.7 lineto
20300.2 35175.5 lineto
20075.2 35175.5 lineto
19962.7 35231.7 lineto
stroke
newpath
21031.4 35288 moveto
21087.6 35231.7 lineto
21031.4 35175.5 lineto
20975.1 35231.7 lineto
21031.4 35288 lineto
21031.4 35175.5 lineto
stroke
newpath
21031.4 35906.6 moveto
21087.6 35850.4 lineto
21031.4 35794.2 lineto
20975.1 35850.4 lineto
21031.4 35906.6 lineto
21031.4 35794.2 lineto
stroke
newpath
10458.9 33902.4 moveto
11804.7 32556.6 lineto
stroke
newpath
11804.7 33902.4 moveto
10458.9 32556.6 lineto
stroke
0 0 0 setrgbcolor
0 0 0 setrgbcolor
newpath
12876.1 33763.8 moveto
12932.4 33820 lineto
13044.8 33876.3 lineto
13326.1 33876.3 lineto
13438.5 33820 lineto
13494.8 33763.8 lineto
13551 33651.3 lineto
13551 33538.8 lineto
13494.8 33370.1 lineto
12819.9 32695.2 lineto
13551 32695.2 lineto
stroke
newpath
14057.2 32807.7 moveto
14113.5 32751.4 lineto
14057.2 32695.2 lineto
14001 32751.4 lineto
14057.2 32807.7 lineto
14057.2 32695.2 lineto
stroke
newpath
14563.4 33763.8 moveto
14619.7 33820 lineto
14732.1 33876.3 lineto
15013.4 33876.3 lineto
15125.8 33820 lineto
15182.1 33763.8 lineto
15238.3 33651.3 lineto
15238.3 33538.8 lineto
15182.1 33370.1 lineto
14507.2 32695.2 lineto
15238.3 32695.2 lineto
stroke
newpath
15969.5 33876.3 moveto
16082 33876.3 lineto
16194.5 33820 lineto
16250.7 33763.8 lineto
16306.9 33651.3 lineto
16363.2 33426.3 lineto
16363.2 33145.1 lineto
16306.9 32920.1 lineto
16250.7 32807.7 lineto
16194.5 32751.4 lineto
16082 32695.2 lineto
15969.5 32695.2 lineto
15857 32751.4 lineto
15800.8 32807.7 lineto
15744.5 32920.1 lineto
15688.3 33145.1 lineto
15688.3 33426.3 lineto
15744.5 33651.3 lineto
15800.8 33763.8 lineto
15857 33820 lineto
15969.5 33876.3 lineto
stroke
newpath
16869.4 32695.2 moveto
16869.4 33482.6 lineto
stroke
newpath
16869.4 33370.1 moveto
16925.6 33426.3 lineto
17038.1 33482.6 lineto
17206.8 33482.6 lineto
17319.3 33426.3 lineto
17375.6 33313.8 lineto
17375.6 32695.2 lineto
stroke
newpath
17375.6 33313.8 moveto
17431.8 33426.3 lineto
17544.3 33482.6 lineto
17713 33482.6 lineto
17825.5 33426.3 lineto
17881.7 33313.8 lineto
17881.7 32695.2 lineto
stroke
newpath
18444.2 32695.2 moveto
18444.2 33482.6 lineto
stroke
newpath
18444.2 33370.1 moveto
18500.4 33426.3 lineto
18612.9 33482.6 lineto
18781.6 33482.6 lineto
18894.1 33426.3 lineto
18950.4 33313.8 lineto
18950.4 32695.2 lineto
stroke
newpath
18950.4 33313.8 moveto
19006.6 33426.3 lineto
19119.1 33482.6 lineto
19287.8 33482.6 lineto
19400.3 33426.3 lineto
19456.5 33313.8 lineto
19456.5 32695.2 lineto
stroke
newpath
21762.5 33932.5 moveto
20750.1 32414 lineto
stroke
newpath
23281.1 33876.3 moveto
23393.6 33876.3 lineto
23506 33820 lineto
23562.3 33763.8 lineto
23618.5 33651.3 lineto
23674.8 33426.3 lineto
23674.8 33145.1 lineto
23618.5 32920.1 lineto
23562.3 32807.7 lineto
23506 32751.4 lineto
23393.6 32695.2 lineto
23281.1 32695.2 lineto
23168.6 32751.4 lineto
23112.3 32807.7 lineto
23056.1 32920.1 lineto
22999.9 33145.1 lineto
22999.9 33426.3 lineto
23056.1 33651.3 lineto
23112.3 33763.8 lineto
23168.6 33820 lineto
23281.1 33876.3 lineto
stroke
newpath
24181 32807.7 moveto
24237.2 32751.4 lineto
24181 32695.2 lineto
24124.7 32751.4 lineto
24181 32807.7 lineto
24181 32695.2 lineto
stroke
newpath
24968.4 33876.3 moveto
25080.8 33876.3 lineto
25193.3 33820 lineto
25249.6 33763.8 lineto
25305.8 33651.3 lineto
25362.1 33426.3 lineto
25362.1 33145.1 lineto
25305.8 32920.1 lineto
25249.6 32807.7 lineto
25193.3 32751.4 lineto
25080.8 32695.2 lineto
24968.4 32695.2 lineto
24855.9 32751.4 lineto
24799.6 32807.7 lineto
24743.4 32920.1 lineto
24687.1 33145.1 lineto
24687.1 33426.3 lineto
24743.4 33651.3 lineto
24799.6 33763.8 lineto
24855.9 33820 lineto
24968.4 33876.3 lineto
stroke
newpath
26037 33370.1 moveto
25924.5 33426.3 lineto
25868.2 33482.6 lineto
25812 33595.1 lineto
25812 33651.3 lineto
25868.2 33763.8 lineto
25924.5 33820 lineto
26037 33876.3 lineto
26261.9 33876.3 lineto
26374.4 33820 lineto
26430.7 33763.8 lineto
26486.9 33651.3 lineto
26486.9 33595.1 lineto
26430.7 33482.6 lineto
26374.4 33426.3 lineto
26261.9 33370.1 lineto
26037 33370.1 lineto
25924.5 33313.8 lineto
25868.2 33257.6 lineto
25812 33145.1 lineto
25812 32920.1 lineto
25868.2 32807.7 lineto
25924.5 32751.4 lineto
26037 32695.2 lineto
26261.9 32695.2 lineto
26374.4 32751.4 lineto
26430.7 32807.7 lineto
26486.9 32920.1 lineto
26486.9 33145.1 lineto
26430.7 33257.6 lineto
26374.4 33313.8 lineto
26261.9 33370.1 lineto
stroke
newpath
26880.6 33876.3 moveto
27668 33876.3 lineto
27161.8 32695.2 lineto
stroke
newpath
28061.7 33876.3 moveto
28061.7 33651.3 lineto
stroke
newpath
28511.7 33876.3 moveto
28511.7 33651.3 lineto
stroke
newpath
30255.2 32245.2 moveto
30199 32301.5 lineto
30086.5 32470.2 lineto
30030.2 32582.7 lineto
29974 32751.4 lineto
29917.7 33032.6 lineto
29917.7 33257.6 lineto
29974 33538.8 lineto
30030.2 33707.5 lineto
30086.5 33820 lineto
30199 33988.8 lineto
30255.2 34045 lineto
stroke
newpath
30592.7 33876.3 moveto
31323.8 33876.3 lineto
30930.1 33426.3 lineto
31098.8 33426.3 lineto
31211.3 33370.1 lineto
31267.6 33313.8 lineto
31323.8 33201.4 lineto
31323.8 32920.1 lineto
31267.6 32807.7 lineto
31211.3 32751.4 lineto
31098.8 32695.2 lineto
30761.4 32695.2 lineto
30648.9 32751.4 lineto
30592.7 32807.7 lineto
stroke
newpath
32729.9 32695.2 moveto
32729.9 33876.3 lineto
stroke
newpath
33236.1 32695.2 moveto
33236.1 33313.8 lineto
33179.8 33426.3 lineto
33067.3 33482.6 lineto
32898.6 33482.6 lineto
32786.1 33426.3 lineto
32729.9 33370.1 lineto
stroke
newpath
33967.2 32695.2 moveto
33854.7 32751.4 lineto
33798.5 32807.7 lineto
33742.3 32920.1 lineto
33742.3 33257.6 lineto
33798.5 33370.1 lineto
33854.7 33426.3 lineto
33967.2 33482.6 lineto
34136 33482.6 lineto
34248.5 33426.3 lineto
34304.7 33370.1 lineto
34360.9 33257.6 lineto
34360.9 32920.1 lineto
34304.7 32807.7 lineto
34248.5 32751.4 lineto
34136 32695.2 lineto
33967.2 32695.2 lineto
stroke
newpath
35035.9 32695.2 moveto
34923.4 32751.4 lineto
34867.1 32863.9 lineto
34867.1 33876.3 lineto
stroke
newpath
35935.7 32751.4 moveto
35823.3 32695.2 lineto
35598.3 32695.2 lineto
35485.8 32751.4 lineto
35429.6 32863.9 lineto
35429.6 33313.8 lineto
35485.8 33426.3 lineto
35598.3 33482.6 lineto
35823.3 33482.6 lineto
35935.7 33426.3 lineto
35992 33313.8 lineto
35992 33201.4 lineto
35429.6 33088.9 lineto
stroke
newpath
36441.9 32751.4 moveto
36554.4 32695.2 lineto
36779.4 32695.2 lineto
36891.9 32751.4 lineto
36948.1 32863.9 lineto
36948.1 32920.1 lineto
36891.9 33032.6 lineto
36779.4 33088.9 lineto
36610.7 33088.9 lineto
36498.2 33145.1 lineto
36441.9 33257.6 lineto
36441.9 33313.8 lineto
36498.2 33426.3 lineto
36610.7 33482.6 lineto
36779.4 33482.6 lineto
36891.9 33426.3 lineto
stroke
newpath
37341.8 32245.2 moveto
37398.1 32301.5 lineto
37510.5 32470.2 lineto
37566.8 32582.7 lineto
37623 32751.4 lineto
37679.3 33032.6 lineto
37679.3 33257.6 lineto
37623 33538.8 lineto
37566.8 33707.5 lineto
37510.5 33820 lineto
37398.1 33988.8 lineto
37341.8 34045 lineto
stroke
newpath
39479 32245.2 moveto
39422.8 32301.5 lineto
39310.3 32470.2 lineto
39254.1 32582.7 lineto
39197.8 32751.4 lineto
39141.6 33032.6 lineto
39141.6 33257.6 lineto
39197.8 33538.8 lineto
39254.1 33707.5 lineto
39310.3 33820 lineto
39422.8 33988.8 lineto
39479 34045 lineto
stroke
newpath
39929 33482.6 moveto
39929 32695.2 lineto
stroke
newpath
39929 33370.1 moveto
39985.2 33426.3 lineto
40097.7 33482.6 lineto
40266.4 33482.6 lineto
40378.9 33426.3 lineto
40435.2 33313.8 lineto
40435.2 32695.2 lineto
stroke
newpath
41166.3 32695.2 moveto
41053.9 32751.4 lineto
40997.6 32807.7 lineto
40941.4 32920.1 lineto
40941.4 33257.6 lineto
40997.6 33370.1 lineto
41053.9 33426.3 lineto
41166.3 33482.6 lineto
41335.1 33482.6 lineto
41447.6 33426.3 lineto
41503.8 33370.1 lineto
41560 33257.6 lineto
41560 32920.1 lineto
41503.8 32807.7 lineto
41447.6 32751.4 lineto
41335.1 32695.2 lineto
41166.3 32695.2 lineto
stroke
newpath
41897.5 33482.6 moveto
42347.4 33482.6 lineto
stroke
newpath
42066.2 33876.3 moveto
42066.2 32863.9 lineto
42122.5 32751.4 lineto
42235 32695.2 lineto
42347.4 32695.2 lineto
stroke
newpath
43641 33482.6 moveto
43641 32301.5 lineto
stroke
newpath
43641 33426.3 moveto
43753.5 33482.6 lineto
43978.5 33482.6 lineto
44091 33426.3 lineto
44147.2 33370.1 lineto
44203.5 33257.6 lineto
44203.5 32920.1 lineto
44147.2 32807.7 lineto
44091 32751.4 lineto
43978.5 32695.2 lineto
43753.5 32695.2 lineto
43641 32751.4 lineto
stroke
newpath
44878.4 32695.2 moveto
44765.9 32751.4 lineto
44709.6 32863.9 lineto
44709.6 33876.3 lineto
stroke
newpath
45834.5 32695.2 moveto
45834.5 33313.8 lineto
45778.3 33426.3 lineto
45665.8 33482.6 lineto
45440.8 33482.6 lineto
45328.3 33426.3 lineto
stroke
newpath
45834.5 32751.4 moveto
45722 32695.2 lineto
45440.8 32695.2 lineto
45328.3 32751.4 lineto
45272.1 32863.9 lineto
45272.1 32976.4 lineto
45328.3 33088.9 lineto
45440.8 33145.1 lineto
45722 33145.1 lineto
45834.5 33201.4 lineto
stroke
newpath
46228.2 33482.6 moveto
46678.1 33482.6 lineto
stroke
newpath
46396.9 33876.3 moveto
46396.9 32863.9 lineto
46453.2 32751.4 lineto
46565.7 32695.2 lineto
46678.1 32695.2 lineto
stroke
newpath
47521.8 32751.4 moveto
47409.3 32695.2 lineto
47184.3 32695.2 lineto
47071.9 32751.4 lineto
47015.6 32863.9 lineto
47015.6 33313.8 lineto
47071.9 33426.3 lineto
47184.3 33482.6 lineto
47409.3 33482.6 lineto
47521.8 33426.3 lineto
47578 33313.8 lineto
47578 33201.4 lineto
47015.6 33088.9 lineto
stroke
newpath
48590.4 32695.2 moveto
48590.4 33876.3 lineto
stroke
newpath
48590.4 32751.4 moveto
48477.9 32695.2 lineto
48253 32695.2 lineto
48140.5 32751.4 lineto
48084.2 32807.7 lineto
48028 32920.1 lineto
48028 33257.6 lineto
48084.2 33370.1 lineto
48140.5 33426.3 lineto
48253 33482.6 lineto
48477.9 33482.6 lineto
48590.4 33426.3 lineto
stroke
newpath
49040.4 32245.2 moveto
49096.6 32301.5 lineto
49209.1 32470.2 lineto
49265.3 32582.7 lineto
49321.6 32751.4 lineto
49377.8 33032.6 lineto
49377.8 33257.6 lineto
49321.6 33538.8 lineto
49265.3 33707.5 lineto
49209.1 33820 lineto
49096.6 33988.8 lineto
49040.4 34045 lineto
stroke
10810.6 31371.8 994.074 cir0
0 0 0 setrgbcolor
0 0 0 setrgbcolor
newpath
12819.9 32018.6 moveto
13551 32018.6 lineto
13157.3 31568.7 lineto
13326.1 31568.7 lineto
13438.5 31512.5 lineto
13494.8 31456.2 lineto
13551 31343.7 lineto
13551 31062.5 lineto
13494.8 30950 lineto
13438.5 30893.8 lineto
13326.1 30837.5 lineto
12988.6 30837.5 lineto
12876.1 30893.8 lineto
12819.9 30950 lineto
stroke
newpath
14057.2 30950 moveto
14113.5 30893.8 lineto
14057.2 30837.5 lineto
14001 30893.8 lineto
14057.2 30950 lineto
14057.2 30837.5 lineto
stroke
newpath
14563.4 31906.2 moveto
14619.7 31962.4 lineto
14732.1 32018.6 lineto
15013.4 32018.6 lineto
15125.8 31962.4 lineto
15182.1 31906.2 lineto
15238.3 31793.7 lineto
15238.3 31681.2 lineto
15182.1 31512.5 lineto
14507.2 30837.5 lineto
15238.3 30837.5 lineto
stroke
newpath
16306.9 32018.6 moveto
15744.5 32018.6 lineto
15688.3 31456.2 lineto
15744.5 31512.5 lineto
15857 31568.7 lineto
16138.2 31568.7 lineto
16250.7 31512.5 lineto
16306.9 31456.2 lineto
16363.2 31343.7 lineto
16363.2 31062.5 lineto
16306.9 30950 lineto
16250.7 30893.8 lineto
16138.2 30837.5 lineto
15857 30837.5 lineto
15744.5 30893.8 lineto
15688.3 30950 lineto
stroke
newpath
16869.4 30837.5 moveto
16869.4 31624.9 lineto
stroke
newpath
16869.4 31512.5 moveto
16925.6 31568.7 lineto
17038.1 31624.9 lineto
17206.8 31624.9 lineto
17319.3 31568.7 lineto
17375.6 31456.2 lineto
17375.6 30837.5 lineto
stroke
newpath
17375.6 31456.2 moveto
17431.8 31568.7 lineto
17544.3 31624.9 lineto
17713 31624.9 lineto
17825.5 31568.7 lineto
17881.7 31456.2 lineto
17881.7 30837.5 lineto
stroke
newpath
18444.2 30837.5 moveto
18444.2 31624.9 lineto
stroke
newpath
18444.2 31512.5 moveto
18500.4 31568.7 lineto
18612.9 31624.9 lineto
18781.6 31624.9 lineto
18894.1 31568.7 lineto
18950.4 31456.2 lineto
18950.4 30837.5 lineto
stroke
newpath
18950.4 31456.2 moveto
19006.6 31568.7 lineto
19119.1 31624.9 lineto
19287.8 31624.9 lineto
19400.3 31568.7 lineto
19456.5 31456.2 lineto
19456.5 30837.5 lineto
stroke
newpath
21762.5 32074.9 moveto
20750.1 30556.3 lineto
stroke
newpath
23281.1 32018.6 moveto
23393.6 32018.6 lineto
23506 31962.4 lineto
23562.3 31906.2 lineto
23618.5 31793.7 lineto
23674.8 31568.7 lineto
23674.8 31287.5 lineto
23618.5 31062.5 lineto
23562.3 30950 lineto
23506 30893.8 lineto
23393.6 30837.5 lineto
23281.1 30837.5 lineto
23168.6 30893.8 lineto
23112.3 30950 lineto
23056.1 31062.5 lineto
22999.9 31287.5 lineto
22999.9 31568.7 lineto
23056.1 31793.7 lineto
23112.3 31906.2 lineto
23168.6 31962.4 lineto
23281.1 32018.6 lineto
stroke
newpath
24181 30950 moveto
24237.2 30893.8 lineto
24181 30837.5 lineto
24124.7 30893.8 lineto
24181 30950 lineto
24181 30837.5 lineto
stroke
newpath
25362.1 30837.5 moveto
24687.1 30837.5 lineto
stroke
newpath
25024.6 30837.5 moveto
25024.6 32018.6 lineto
24912.1 31849.9 lineto
24799.6 31737.4 lineto
24687.1 31681.2 lineto
stroke
newpath
25812 31906.2 moveto
25868.2 31962.4 lineto
25980.7 32018.6 lineto
26261.9 32018.6 lineto
26374.4 31962.4 lineto
26430.7 31906.2 lineto
26486.9 31793.7 lineto
26486.9 31681.2 lineto
26430.7 31512.5 lineto
25755.8 30837.5 lineto
26486.9 30837.5 lineto
stroke
newpath
27161.8 31512.5 moveto
27049.3 31568.7 lineto
26993.1 31624.9 lineto
26936.9 31737.4 lineto
26936.9 31793.7 lineto
26993.1 31906.2 lineto
27049.3 31962.4 lineto
27161.8 32018.6 lineto
27386.8 32018.6 lineto
27499.3 31962.4 lineto
27555.5 31906.2 lineto
27611.8 31793.7 lineto
27611.8 31737.4 lineto
27555.5 31624.9 lineto
27499.3 31568.7 lineto
27386.8 31512.5 lineto
27161.8 31512.5 lineto
27049.3 31456.2 lineto
26993.1 31400 lineto
26936.9 31287.5 lineto
26936.9 31062.5 lineto
26993.1 30950 lineto
27049.3 30893.8 lineto
27161.8 30837.5 lineto
27386.8 30837.5 lineto
27499.3 30893.8 lineto
27555.5 30950 lineto
27611.8 31062.5 lineto
27611.8 31287.5 lineto
27555.5 31400 lineto
27499.3 31456.2 lineto
27386.8 31512.5 lineto
stroke
newpath
28061.7 32018.6 moveto
28061.7 31793.7 lineto
stroke
newpath
28511.7 32018.6 moveto
28511.7 31793.7 lineto
stroke
newpath
30255.2 30387.6 moveto
30199 30443.8 lineto
30086.5 30612.6 lineto
30030.2 30725.1 lineto
29974 30893.8 lineto
29917.7 31175 lineto
29917.7 31400 lineto
29974 31681.2 lineto
30030.2 31849.9 lineto
30086.5 31962.4 lineto
30199 32131.1 lineto
30255.2 32187.4 lineto
stroke
newpath
30648.9 31906.2 moveto
30705.1 31962.4 lineto
30817.6 32018.6 lineto
31098.8 32018.6 lineto
31211.3 31962.4 lineto
31267.6 31906.2 lineto
31323.8 31793.7 lineto
31323.8 31681.2 lineto
31267.6 31512.5 lineto
30592.7 30837.5 lineto
31323.8 30837.5 lineto
stroke
newpath
32729.9 30837.5 moveto
32729.9 32018.6 lineto
stroke
newpath
33236.1 30837.5 moveto
33236.1 31456.2 lineto
33179.8 31568.7 lineto
33067.3 31624.9 lineto
32898.6 31624.9 lineto
32786.1 31568.7 lineto
32729.9 31512.5 lineto
stroke
newpath
33967.2 30837.5 moveto
33854.7 30893.8 lineto
33798.5 30950 lineto
33742.3 31062.5 lineto
33742.3 31400 lineto
33798.5 31512.5 lineto
33854.7 31568.7 lineto
33967.2 31624.9 lineto
34136 31624.9 lineto
34248.5 31568.7 lineto
34304.7 31512.5 lineto
34360.9 31400 lineto
34360.9 31062.5 lineto
34304.7 30950 lineto
34248.5 30893.8 lineto
34136 30837.5 lineto
33967.2 30837.5 lineto
stroke
newpath
35035.9 30837.5 moveto
34923.4 30893.8 lineto
34867.1 31006.3 lineto
34867.1 32018.6 lineto
stroke
newpath
35935.7 30893.8 moveto
35823.3 30837.5 lineto
35598.3 30837.5 lineto
35485.8 30893.8 lineto
35429.6 31006.3 lineto
35429.6 31456.2 lineto
35485.8 31568.7 lineto
35598.3 31624.9 lineto
35823.3 31624.9 lineto
35935.7 31568.7 lineto
35992 31456.2 lineto
35992 31343.7 lineto
35429.6 31231.2 lineto
stroke
newpath
36441.9 30893.8 moveto
36554.4 30837.5 lineto
36779.4 30837.5 lineto
36891.9 30893.8 lineto
36948.1 31006.3 lineto
36948.1 31062.5 lineto
36891.9 31175 lineto
36779.4 31231.2 lineto
36610.7 31231.2 lineto
36498.2 31287.5 lineto
36441.9 31400 lineto
36441.9 31456.2 lineto
36498.2 31568.7 lineto
36610.7 31624.9 lineto
36779.4 31624.9 lineto
36891.9 31568.7 lineto
stroke
newpath
37341.8 30387.6 moveto
37398.1 30443.8 lineto
37510.5 30612.6 lineto
37566.8 30725.1 lineto
37623 30893.8 lineto
37679.3 31175 lineto
37679.3 31400 lineto
37623 31681.2 lineto
37566.8 31849.9 lineto
37510.5 31962.4 lineto
37398.1 32131.1 lineto
37341.8 32187.4 lineto
stroke
newpath
39479 30387.6 moveto
39422.8 30443.8 lineto
39310.3 30612.6 lineto
39254.1 30725.1 lineto
39197.8 30893.8 lineto
39141.6 31175 lineto
39141.6 31400 lineto
39197.8 31681.2 lineto
39254.1 31849.9 lineto
39310.3 31962.4 lineto
39422.8 32131.1 lineto
39479 32187.4 lineto
stroke
newpath
39929 31624.9 moveto
39929 30837.5 lineto
stroke
newpath
39929 31512.5 moveto
39985.2 31568.7 lineto
40097.7 31624.9 lineto
40266.4 31624.9 lineto
40378.9 31568.7 lineto
40435.2 31456.2 lineto
40435.2 30837.5 lineto
stroke
newpath
41166.3 30837.5 moveto
41053.9 30893.8 lineto
40997.6 30950 lineto
40941.4 31062.5 lineto
40941.4 31400 lineto
40997.6 31512.5 lineto
41053.9 31568.7 lineto
41166.3 31624.9 lineto
41335.1 31624.9 lineto
41447.6 31568.7 lineto
41503.8 31512.5 lineto
41560 31400 lineto
41560 31062.5 lineto
41503.8 30950 lineto
41447.6 30893.8 lineto
41335.1 30837.5 lineto
41166.3 30837.5 lineto
stroke
newpath
41897.5 31624.9 moveto
42347.4 31624.9 lineto
stroke
newpath
42066.2 32018.6 moveto
42066.2 31006.3 lineto
42122.5 30893.8 lineto
42235 30837.5 lineto
42347.4 30837.5 lineto
stroke
newpath
43641 31624.9 moveto
43641 30443.8 lineto
stroke
newpath
43641 31568.7 moveto
43753.5 31624.9 lineto
43978.5 31624.9 lineto
44091 31568.7 lineto
44147.2 31512.5 lineto
44203.5 31400 lineto
44203.5 31062.5 lineto
44147.2 30950 lineto
44091 30893.8 lineto
43978.5 30837.5 lineto
43753.5 30837.5 lineto
43641 30893.8 lineto
stroke
newpath
44878.4 30837.5 moveto
44765.9 30893.8 lineto
44709.6 31006.3 lineto
44709.6 32018.6 lineto
stroke
newpath
45834.5 30837.5 moveto
45834.5 31456.2 lineto
45778.3 31568.7 lineto
45665.8 31624.9 lineto
45440.8 31624.9 lineto
45328.3 31568.7 lineto
stroke
newpath
45834.5 30893.8 moveto
45722 30837.5 lineto
45440.8 30837.5 lineto
45328.3 30893.8 lineto
45272.1 31006.3 lineto
45272.1 31118.8 lineto
45328.3 31231.2 lineto
45440.8 31287.5 lineto
45722 31287.5 lineto
45834.5 31343.7 lineto
stroke
newpath
46228.2 31624.9 moveto
46678.1 31624.9 lineto
stroke
newpath
46396.9 32018.6 moveto
46396.9 31006.3 lineto
46453.2 30893.8 lineto
46565.7 30837.5 lineto
46678.1 30837.5 lineto
stroke
newpath
47521.8 30893.8 moveto
47409.3 30837.5 lineto
47184.3 30837.5 lineto
47071.9 30893.8 lineto
47015.6 31006.3 lineto
47015.6 31456.2 lineto
47071.9 31568.7 lineto
47184.3 31624.9 lineto
47409.3 31624.9 lineto
47521.8 31568.7 lineto
47578 31456.2 lineto
47578 31343.7 lineto
47015.6 31231.2 lineto
stroke
newpath
48590.4 30837.5 moveto
48590.4 32018.6 lineto
stroke
newpath
48590.4 30893.8 moveto
48477.9 30837.5 lineto
48253 30837.5 lineto
48140.5 30893.8 lineto
48084.2 30950 lineto
48028 31062.5 lineto
48028 31400 lineto
48084.2 31512.5 lineto
48140.5 31568.7 lineto
48253 31624.9 lineto
48477.9 31624.9 lineto
48590.4 31568.7 lineto
stroke
newpath
49040.4 30387.6 moveto
49096.6 30443.8 lineto
49209.1 30612.6 lineto
49265.3 30725.1 lineto
49321.6 30893.8 lineto
49377.8 31175 lineto
49377.8 31400 lineto
49321.6 31681.2 lineto
49265.3 31849.9 lineto
49209.1 31962.4 lineto
49096.6 32131.1 lineto
49040.4 32187.4 lineto
stroke
showpage
grestore
%%EOF
