(module DIOM5436X245N (layer F.Cu) (tedit 5EEAD4A5)
  (fp_text reference REF** (at 1.09948 -9.92859) (layer F.SilkS)
    (effects (font (size 3.382803 3.382803) (thickness 0.015)))
  )
  (fp_text value DIOM5436X245N (at 17.65568 10.22534) (layer F.Fab)
    (effects (font (size 3.391906 3.391906) (thickness 0.015)))
  )
  (fp_line (start 2.7 1.8) (end 2.7 1.45) (layer F.SilkS) (width 0.2))
  (fp_line (start -2.7 1.8) (end -2.7 1.45) (layer F.SilkS) (width 0.2))
  (fp_line (start 2.7 -1.8) (end 2.7 -1.4) (layer F.SilkS) (width 0.2))
  (fp_line (start -2.7 -1.8) (end -2.7 -1.4) (layer F.SilkS) (width 0.2))
  (fp_line (start -3.55 2.25) (end -3.55 -2.25) (layer F.CrtYd) (width 0.05))
  (fp_line (start 3.55 2.25) (end -3.55 2.25) (layer F.CrtYd) (width 0.05))
  (fp_line (start 3.55 -2.25) (end 3.55 2.25) (layer F.CrtYd) (width 0.05))
  (fp_line (start -3.55 -2.25) (end 3.55 -2.25) (layer F.CrtYd) (width 0.05))
  (fp_circle (center -3.95 0) (end -3.808581 0) (layer F.SilkS) (width 0.2))
  (fp_line (start -2.7 1.8) (end 2.7 1.8) (layer F.SilkS) (width 0.2))
  (fp_line (start -2.7 -1.8) (end 2.7 -1.8) (layer F.SilkS) (width 0.2))
  (pad 2 smd rect (at 2.2 0) (size 2.2 2.15) (layers F.Cu F.Paste F.Mask))
  (pad 1 smd rect (at -2.2 0) (size 2.2 2.15) (layers F.Cu F.Paste F.Mask))
)
